%!PS-Adobe-3.0 EPSF-3.0
%%Creator: (MATLAB, The Mathworks, Inc. Version 9.5.0.944444 \(R2018b\). Operating System: Windows 10)
%%Title: ./u10h1DBLTsigma39dt.eps
%%CreationDate: 2019-08-08T23:45:04
%%Pages: (atend)
%%BoundingBox:     0     2   382   296
%%LanguageLevel: 2
%%EndComments
%%BeginProlog
%%BeginResource: procset (Apache XML Graphics Std ProcSet) 1.2 0
%%Version: 1.2 0
%%Copyright: (Copyright 2001-2003,2010 The Apache Software Foundation. License terms: http://www.apache.org/licenses/LICENSE-2.0)
/bd{bind def}bind def
/ld{load def}bd
/GR/grestore ld
/GS/gsave ld
/RM/rmoveto ld
/C/curveto ld
/t/show ld
/L/lineto ld
/ML/setmiterlimit ld
/CT/concat ld
/f/fill ld
/N/newpath ld
/S/stroke ld
/CC/setcmykcolor ld
/A/ashow ld
/cp/closepath ld
/RC/setrgbcolor ld
/LJ/setlinejoin ld
/GC/setgray ld
/LW/setlinewidth ld
/M/moveto ld
/re {4 2 roll M
1 index 0 rlineto
0 exch rlineto
neg 0 rlineto
cp } bd
/_ctm matrix def
/_tm matrix def
/BT { _ctm currentmatrix pop matrix _tm copy pop 0 0 moveto } bd
/ET { _ctm setmatrix } bd
/iTm { _ctm setmatrix _tm concat } bd
/Tm { _tm astore pop iTm 0 0 moveto } bd
/ux 0.0 def
/uy 0.0 def
/F {
  /Tp exch def
  /Tf exch def
  Tf findfont Tp scalefont setfont
  /cf Tf def  /cs Tp def
} bd
/ULS {currentpoint /uy exch def /ux exch def} bd
/ULE {
  /Tcx currentpoint pop def
  gsave
  newpath
  cf findfont cs scalefont dup
  /FontMatrix get 0 get /Ts exch def /FontInfo get dup
  /UnderlinePosition get Ts mul /To exch def
  /UnderlineThickness get Ts mul /Tt exch def
  ux uy To add moveto  Tcx uy To add lineto
  Tt setlinewidth stroke
  grestore
} bd
/OLE {
  /Tcx currentpoint pop def
  gsave
  newpath
  cf findfont cs scalefont dup
  /FontMatrix get 0 get /Ts exch def /FontInfo get dup
  /UnderlinePosition get Ts mul /To exch def
  /UnderlineThickness get Ts mul /Tt exch def
  ux uy To add cs add moveto Tcx uy To add cs add lineto
  Tt setlinewidth stroke
  grestore
} bd
/SOE {
  /Tcx currentpoint pop def
  gsave
  newpath
  cf findfont cs scalefont dup
  /FontMatrix get 0 get /Ts exch def /FontInfo get dup
  /UnderlinePosition get Ts mul /To exch def
  /UnderlineThickness get Ts mul /Tt exch def
  ux uy To add cs 10 mul 26 idiv add moveto Tcx uy To add cs 10 mul 26 idiv add lineto
  Tt setlinewidth stroke
  grestore
} bd
/QT {
/Y22 exch store
/X22 exch store
/Y21 exch store
/X21 exch store
currentpoint
/Y21 load 2 mul add 3 div exch
/X21 load 2 mul add 3 div exch
/X21 load 2 mul /X22 load add 3 div
/Y21 load 2 mul /Y22 load add 3 div
/X22 load /Y22 load curveto
} bd
/SSPD {
dup length /d exch dict def
{
/v exch def
/k exch def
currentpagedevice k known {
/cpdv currentpagedevice k get def
v cpdv ne {
/upd false def
/nullv v type /nulltype eq def
/nullcpdv cpdv type /nulltype eq def
nullv nullcpdv or
{
/upd true def
} {
/sametype v type cpdv type eq def
sametype {
v type /arraytype eq {
/vlen v length def
/cpdvlen cpdv length def
vlen cpdvlen eq {
0 1 vlen 1 sub {
/i exch def
/obj v i get def
/cpdobj cpdv i get def
obj cpdobj ne {
/upd true def
exit
} if
} for
} {
/upd true def
} ifelse
} {
v type /dicttype eq {
v {
/dv exch def
/dk exch def
/cpddv cpdv dk get def
dv cpddv ne {
/upd true def
exit
} if
} forall
} {
/upd true def
} ifelse
} ifelse
} if
} ifelse
upd true eq {
d k v put
} if
} if
} if
} forall
d length 0 gt {
d setpagedevice
} if
} bd
/RE { % /NewFontName [NewEncodingArray] /FontName RE -
  findfont dup length dict begin
  {
    1 index /FID ne
    {def} {pop pop} ifelse
  } forall
  /Encoding exch def
  /FontName 1 index def
  currentdict definefont pop
  end
} bind def
%%EndResource
%%BeginResource: procset (Apache XML Graphics EPS ProcSet) 1.0 0
%%Version: 1.0 0
%%Copyright: (Copyright 2002-2003 The Apache Software Foundation. License terms: http://www.apache.org/licenses/LICENSE-2.0)
/BeginEPSF { %def
/b4_Inc_state save def         % Save state for cleanup
/dict_count countdictstack def % Count objects on dict stack
/op_count count 1 sub def      % Count objects on operand stack
userdict begin                 % Push userdict on dict stack
/showpage { } def              % Redefine showpage, { } = null proc
0 setgray 0 setlinecap         % Prepare graphics state
1 setlinewidth 0 setlinejoin
10 setmiterlimit [ ] 0 setdash newpath
/languagelevel where           % If level not equal to 1 then
{pop languagelevel             % set strokeadjust and
1 ne                           % overprint to their defaults.
{false setstrokeadjust false setoverprint
} if
} if
} bd
/EndEPSF { %def
count op_count sub {pop} repeat            % Clean up stacks
countdictstack dict_count sub {end} repeat
b4_Inc_state restore
} bd
%%EndResource
%FOPBeginFontDict
%%IncludeResource: font Courier-Oblique
%%IncludeResource: font Courier-BoldOblique
%%IncludeResource: font Courier-Bold
%%IncludeResource: font ZapfDingbats
%%IncludeResource: font Symbol
%%IncludeResource: font Helvetica
%%IncludeResource: font Helvetica-Oblique
%%IncludeResource: font Helvetica-Bold
%%IncludeResource: font Helvetica-BoldOblique
%%IncludeResource: font Times-Roman
%%IncludeResource: font Times-Italic
%%IncludeResource: font Times-Bold
%%IncludeResource: font Times-BoldItalic
%%IncludeResource: font Courier
%FOPEndFontDict
%%BeginResource: encoding WinAnsiEncoding
/WinAnsiEncoding [
/.notdef /.notdef /.notdef /.notdef /.notdef
/.notdef /.notdef /.notdef /.notdef /.notdef
/.notdef /.notdef /.notdef /.notdef /.notdef
/.notdef /.notdef /.notdef /.notdef /.notdef
/.notdef /.notdef /.notdef /.notdef /.notdef
/.notdef /.notdef /.notdef /.notdef /.notdef
/.notdef /.notdef /space /exclam /quotedbl
/numbersign /dollar /percent /ampersand /quotesingle
/parenleft /parenright /asterisk /plus /comma
/hyphen /period /slash /zero /one
/two /three /four /five /six
/seven /eight /nine /colon /semicolon
/less /equal /greater /question /at
/A /B /C /D /E
/F /G /H /I /J
/K /L /M /N /O
/P /Q /R /S /T
/U /V /W /X /Y
/Z /bracketleft /backslash /bracketright /asciicircum
/underscore /quoteleft /a /b /c
/d /e /f /g /h
/i /j /k /l /m
/n /o /p /q /r
/s /t /u /v /w
/x /y /z /braceleft /bar
/braceright /asciitilde /bullet /Euro /bullet
/quotesinglbase /florin /quotedblbase /ellipsis /dagger
/daggerdbl /circumflex /perthousand /Scaron /guilsinglleft
/OE /bullet /Zcaron /bullet /bullet
/quoteleft /quoteright /quotedblleft /quotedblright /bullet
/endash /emdash /asciitilde /trademark /scaron
/guilsinglright /oe /bullet /zcaron /Ydieresis
/space /exclamdown /cent /sterling /currency
/yen /brokenbar /section /dieresis /copyright
/ordfeminine /guillemotleft /logicalnot /sfthyphen /registered
/macron /degree /plusminus /twosuperior /threesuperior
/acute /mu /paragraph /middot /cedilla
/onesuperior /ordmasculine /guillemotright /onequarter /onehalf
/threequarters /questiondown /Agrave /Aacute /Acircumflex
/Atilde /Adieresis /Aring /AE /Ccedilla
/Egrave /Eacute /Ecircumflex /Edieresis /Igrave
/Iacute /Icircumflex /Idieresis /Eth /Ntilde
/Ograve /Oacute /Ocircumflex /Otilde /Odieresis
/multiply /Oslash /Ugrave /Uacute /Ucircumflex
/Udieresis /Yacute /Thorn /germandbls /agrave
/aacute /acircumflex /atilde /adieresis /aring
/ae /ccedilla /egrave /eacute /ecircumflex
/edieresis /igrave /iacute /icircumflex /idieresis
/eth /ntilde /ograve /oacute /ocircumflex
/otilde /odieresis /divide /oslash /ugrave
/uacute /ucircumflex /udieresis /yacute /thorn
/ydieresis
] def
%%EndResource
%FOPBeginFontReencode
/Courier-Oblique findfont
dup length dict begin
  {1 index /FID ne {def} {pop pop} ifelse} forall
  /Encoding WinAnsiEncoding def
  currentdict
end
/Courier-Oblique exch definefont pop
/Courier-BoldOblique findfont
dup length dict begin
  {1 index /FID ne {def} {pop pop} ifelse} forall
  /Encoding WinAnsiEncoding def
  currentdict
end
/Courier-BoldOblique exch definefont pop
/Courier-Bold findfont
dup length dict begin
  {1 index /FID ne {def} {pop pop} ifelse} forall
  /Encoding WinAnsiEncoding def
  currentdict
end
/Courier-Bold exch definefont pop
/Helvetica findfont
dup length dict begin
  {1 index /FID ne {def} {pop pop} ifelse} forall
  /Encoding WinAnsiEncoding def
  currentdict
end
/Helvetica exch definefont pop
/Helvetica-Oblique findfont
dup length dict begin
  {1 index /FID ne {def} {pop pop} ifelse} forall
  /Encoding WinAnsiEncoding def
  currentdict
end
/Helvetica-Oblique exch definefont pop
/Helvetica-Bold findfont
dup length dict begin
  {1 index /FID ne {def} {pop pop} ifelse} forall
  /Encoding WinAnsiEncoding def
  currentdict
end
/Helvetica-Bold exch definefont pop
/Helvetica-BoldOblique findfont
dup length dict begin
  {1 index /FID ne {def} {pop pop} ifelse} forall
  /Encoding WinAnsiEncoding def
  currentdict
end
/Helvetica-BoldOblique exch definefont pop
/Times-Roman findfont
dup length dict begin
  {1 index /FID ne {def} {pop pop} ifelse} forall
  /Encoding WinAnsiEncoding def
  currentdict
end
/Times-Roman exch definefont pop
/Times-Italic findfont
dup length dict begin
  {1 index /FID ne {def} {pop pop} ifelse} forall
  /Encoding WinAnsiEncoding def
  currentdict
end
/Times-Italic exch definefont pop
/Times-Bold findfont
dup length dict begin
  {1 index /FID ne {def} {pop pop} ifelse} forall
  /Encoding WinAnsiEncoding def
  currentdict
end
/Times-Bold exch definefont pop
/Times-BoldItalic findfont
dup length dict begin
  {1 index /FID ne {def} {pop pop} ifelse} forall
  /Encoding WinAnsiEncoding def
  currentdict
end
/Times-BoldItalic exch definefont pop
/Courier findfont
dup length dict begin
  {1 index /FID ne {def} {pop pop} ifelse} forall
  /Encoding WinAnsiEncoding def
  currentdict
end
/Courier exch definefont pop
%FOPEndFontReencode
%%EndProlog
%%Page: 1 1
%%PageBoundingBox: 0 0 420 315
%%BeginPageSetup
[1 0 0 -1 0 315] CT
%%EndPageSetup
GS
[0.75 0 0 0.75 0 0] CT
1 GC
N
0 0 560 420 re
f
GR
GS
[0.75 0 0 0.75 0 0] CT
1 GC
N
0 0 560 420 re
f
GR
GS
[0.75 0 0 0.75 0 0] CT
1 GC
N
119 367 M
507 367 L
507 31 L
119 31 L
cp
f
GR
GS
[0.75 0 0 0.75 0 0] CT
0.149 GC
2 setlinecap
1 LJ
0.667 LW
N
119 367 M
507 367 L
S
GR
GS
[0.75 0 0 0.75 0 0] CT
0.149 GC
2 setlinecap
1 LJ
0.667 LW
N
119 31 M
507 31 L
S
GR
GS
[0.75 0 0 0.75 0 0] CT
0.149 GC
2 setlinecap
1 LJ
0.667 LW
N
119 367 M
119 363.122 L
S
GR
GS
[0.75 0 0 0.75 0 0] CT
0.149 GC
2 setlinecap
1 LJ
0.667 LW
N
196.6 367 M
196.6 363.122 L
S
GR
GS
[0.75 0 0 0.75 0 0] CT
0.149 GC
2 setlinecap
1 LJ
0.667 LW
N
274.2 367 M
274.2 363.122 L
S
GR
GS
[0.75 0 0 0.75 0 0] CT
0.149 GC
2 setlinecap
1 LJ
0.667 LW
N
351.8 367 M
351.8 363.122 L
S
GR
GS
[0.75 0 0 0.75 0 0] CT
0.149 GC
2 setlinecap
1 LJ
0.667 LW
N
429.4 367 M
429.4 363.122 L
S
GR
GS
[0.75 0 0 0.75 0 0] CT
0.149 GC
2 setlinecap
1 LJ
0.667 LW
N
507 367 M
507 363.122 L
S
GR
GS
[0.75 0 0 0.75 0 0] CT
0.149 GC
2 setlinecap
1 LJ
0.667 LW
N
119 31 M
119 34.878 L
S
GR
GS
[0.75 0 0 0.75 0 0] CT
0.149 GC
2 setlinecap
1 LJ
0.667 LW
N
196.6 31 M
196.6 34.878 L
S
GR
GS
[0.75 0 0 0.75 0 0] CT
0.149 GC
2 setlinecap
1 LJ
0.667 LW
N
274.2 31 M
274.2 34.878 L
S
GR
GS
[0.75 0 0 0.75 0 0] CT
0.149 GC
2 setlinecap
1 LJ
0.667 LW
N
351.8 31 M
351.8 34.878 L
S
GR
GS
[0.75 0 0 0.75 0 0] CT
0.149 GC
2 setlinecap
1 LJ
0.667 LW
N
429.4 31 M
429.4 34.878 L
S
GR
GS
[0.75 0 0 0.75 0 0] CT
0.149 GC
2 setlinecap
1 LJ
0.667 LW
N
507 31 M
507 34.878 L
S
GR
GS
[0.75 0 0 0.75 89.25 279.65] CT
0.149 GC
/Helvetica 16 F
GS
[1 0 0 1 0 0] CT
-4.5 17 moveto 
1 -1 scale
(0) t 
GR
GR
GS
[0.75 0 0 0.75 147.45 279.65] CT
0.149 GC
/Helvetica 16 F
GS
[1 0 0 1 0 0] CT
-11.5 17 moveto 
1 -1 scale
(0.2) t 
GR
GR
GS
[0.75 0 0 0.75 205.65001 279.65] CT
0.149 GC
/Helvetica 16 F
GS
[1 0 0 1 0 0] CT
-11.5 17 moveto 
1 -1 scale
(0.4) t 
GR
GR
GS
[0.75 0 0 0.75 263.85001 279.65] CT
0.149 GC
/Helvetica 16 F
GS
[1 0 0 1 0 0] CT
-11.5 17 moveto 
1 -1 scale
(0.6) t 
GR
GR
GS
[0.75 0 0 0.75 322.05 279.65] CT
0.149 GC
/Helvetica 16 F
GS
[1 0 0 1 0 0] CT
-11.5 17 moveto 
1 -1 scale
(0.8) t 
GR
GR
GS
[0.75 0 0 0.75 380.25 279.65] CT
0.149 GC
/Helvetica 16 F
GS
[1 0 0 1 0 0] CT
-4.5 17 moveto 
1 -1 scale
(1) t 
GR
GR
GS
[0.75 0 0 0.75 234.75014 296.25] CT
0.149 GC
/Helvetica 18.667 F
GS
[1 0 0 1 0 0] CT
-21 19 moveto 
1 -1 scale
(Time) t 
GR
GR
GS
[0.75 0 0 0.75 348 312] CT
0.149 GC
N
2.359 -0.469 M
2.359 -0.594 2.438 -0.688 QT
5.766 -4 L
2.438 -7.328 L
2.359 -7.406 2.359 -7.547 QT
2.359 -7.656 2.453 -7.758 QT
2.547 -7.859 2.672 -7.859 QT
2.781 -7.859 2.922 -7.766 QT
6.234 -4.453 L
9.531 -7.766 L
9.656 -7.859 9.766 -7.859 QT
9.891 -7.859 9.984 -7.766 QT
10.078 -7.672 10.078 -7.547 QT
10.078 -7.406 10 -7.328 QT
6.672 -4 L
10 -0.688 L
10.078 -0.594 10.078 -0.469 QT
10.078 -0.328 9.984 -0.234 QT
9.891 -0.141 9.766 -0.141 QT
9.641 -0.141 9.531 -0.266 QT
6.234 -3.563 L
2.922 -0.266 L
2.797 -0.141 2.672 -0.141 QT
2.547 -0.141 2.453 -0.242 QT
2.359 -0.344 2.359 -0.469 QT
cp
f
GR
GS
[0.75 0 0 0.75 357.75 312] CT
0.149 GC
/Helvetica 16 F
GS
[1 0 0 1 0 0] CT
0 0 moveto 
1 -1 scale
(10) t 
GR
GR
GS
[0.75 0 0 0.75 371.25 306] CT
0.149 GC
/Helvetica 12.8 F
GS
[1 0 0 1 0 0] CT
0 0 moveto 
1 -1 scale
(-7) t 
GR
GR
GS
[0.75 0 0 0.75 0 0] CT
0.149 GC
2 setlinecap
1 LJ
0.667 LW
N
119 367 M
119 31 L
S
GR
GS
[0.75 0 0 0.75 0 0] CT
0.149 GC
2 setlinecap
1 LJ
0.667 LW
N
507 367 M
507 31 L
S
GR
GS
[0.75 0 0 0.75 0 0] CT
0.149 GC
2 setlinecap
1 LJ
0.667 LW
N
119 367 M
122.878 367 L
S
GR
GS
[0.75 0 0 0.75 0 0] CT
0.149 GC
2 setlinecap
1 LJ
0.667 LW
N
119 311 M
122.878 311 L
S
GR
GS
[0.75 0 0 0.75 0 0] CT
0.149 GC
2 setlinecap
1 LJ
0.667 LW
N
119 255 M
122.878 255 L
S
GR
GS
[0.75 0 0 0.75 0 0] CT
0.149 GC
2 setlinecap
1 LJ
0.667 LW
N
119 199 M
122.878 199 L
S
GR
GS
[0.75 0 0 0.75 0 0] CT
0.149 GC
2 setlinecap
1 LJ
0.667 LW
N
119 143 M
122.878 143 L
S
GR
GS
[0.75 0 0 0.75 0 0] CT
0.149 GC
2 setlinecap
1 LJ
0.667 LW
N
119 87 M
122.878 87 L
S
GR
GS
[0.75 0 0 0.75 0 0] CT
0.149 GC
2 setlinecap
1 LJ
0.667 LW
N
119 31 M
122.878 31 L
S
GR
GS
[0.75 0 0 0.75 0 0] CT
0.149 GC
2 setlinecap
1 LJ
0.667 LW
N
507 367 M
503.122 367 L
S
GR
GS
[0.75 0 0 0.75 0 0] CT
0.149 GC
2 setlinecap
1 LJ
0.667 LW
N
507 311 M
503.122 311 L
S
GR
GS
[0.75 0 0 0.75 0 0] CT
0.149 GC
2 setlinecap
1 LJ
0.667 LW
N
507 255 M
503.122 255 L
S
GR
GS
[0.75 0 0 0.75 0 0] CT
0.149 GC
2 setlinecap
1 LJ
0.667 LW
N
507 199 M
503.122 199 L
S
GR
GS
[0.75 0 0 0.75 0 0] CT
0.149 GC
2 setlinecap
1 LJ
0.667 LW
N
507 143 M
503.122 143 L
S
GR
GS
[0.75 0 0 0.75 0 0] CT
0.149 GC
2 setlinecap
1 LJ
0.667 LW
N
507 87 M
503.122 87 L
S
GR
GS
[0.75 0 0 0.75 0 0] CT
0.149 GC
2 setlinecap
1 LJ
0.667 LW
N
507 31 M
503.122 31 L
S
GR
GS
[0.75 0 0 0.75 84.85 275.25] CT
0.149 GC
/Helvetica 16 F
GS
[1 0 0 1 0 0] CT
-9 6.5 moveto 
1 -1 scale
(0) t 
GR
GR
GS
[0.75 0 0 0.75 84.85 233.25] CT
0.149 GC
/Helvetica 16 F
GS
[1 0 0 1 0 0] CT
-36 6.5 moveto 
1 -1 scale
(1000) t 
GR
GR
GS
[0.75 0 0 0.75 84.85 191.25] CT
0.149 GC
/Helvetica 16 F
GS
[1 0 0 1 0 0] CT
-36 6.5 moveto 
1 -1 scale
(2000) t 
GR
GR
GS
[0.75 0 0 0.75 84.85 149.25] CT
0.149 GC
/Helvetica 16 F
GS
[1 0 0 1 0 0] CT
-36 6.5 moveto 
1 -1 scale
(3000) t 
GR
GR
GS
[0.75 0 0 0.75 84.85 107.25] CT
0.149 GC
/Helvetica 16 F
GS
[1 0 0 1 0 0] CT
-36 6.5 moveto 
1 -1 scale
(4000) t 
GR
GR
GS
[0.75 0 0 0.75 84.85 65.25001] CT
0.149 GC
/Helvetica 16 F
GS
[1 0 0 1 0 0] CT
-36 6.5 moveto 
1 -1 scale
(5000) t 
GR
GR
GS
[0.75 0 0 0.75 84.85 23.25] CT
0.149 GC
/Helvetica 16 F
GS
[1 0 0 1 0 0] CT
-36 6.5 moveto 
1 -1 scale
(6000) t 
GR
GR
GS
[0.75 0 0 0.75 54.96948 149.24989] CT
0.149 GC
N
-72.402 -6.72 M
-72.59 -6.72 -72.59 -6.97 QT
-72.574 -7.017 -72.55 -7.134 QT
-72.527 -7.251 -72.472 -7.322 QT
-72.418 -7.392 -72.34 -7.392 QT
-71.183 -7.392 -70.73 -7.517 QT
-70.48 -7.595 -70.371 -8.033 QT
-67.761 -18.47 L
-67.73 -18.658 -67.73 -18.72 QT
-67.73 -18.923 -67.965 -18.954 QT
-68.308 -19.033 -69.324 -19.033 QT
-69.511 -19.033 -69.511 -19.283 QT
-69.449 -19.517 -69.41 -19.611 QT
-69.371 -19.704 -69.199 -19.704 QT
-64.074 -19.704 L
-63.886 -19.704 -63.886 -19.454 QT
-63.902 -19.408 -63.925 -19.29 QT
-63.949 -19.173 -63.996 -19.103 QT
-64.043 -19.033 -64.136 -19.033 QT
-65.293 -19.033 -65.746 -18.908 QT
-65.996 -18.814 -66.105 -18.376 QT
-67.246 -13.814 L
-61.543 -13.814 L
-60.386 -18.47 L
-60.355 -18.658 -60.355 -18.72 QT
-60.355 -18.923 -60.59 -18.954 QT
-60.949 -19.033 -61.949 -19.033 QT
-62.136 -19.033 -62.136 -19.283 QT
-62.074 -19.517 -62.035 -19.611 QT
-61.996 -19.704 -61.824 -19.704 QT
-56.699 -19.704 L
-56.511 -19.704 -56.511 -19.454 QT
-56.527 -19.408 -56.558 -19.29 QT
-56.59 -19.173 -56.636 -19.103 QT
-56.683 -19.033 -56.761 -19.033 QT
-57.918 -19.033 -58.371 -18.908 QT
-58.621 -18.814 -58.73 -18.376 QT
-61.34 -7.954 L
-61.386 -7.767 -61.386 -7.689 QT
-61.386 -7.486 -61.152 -7.47 QT
-60.793 -7.392 -59.777 -7.392 QT
-59.59 -7.392 -59.59 -7.142 QT
-59.652 -6.908 -59.707 -6.814 QT
-59.761 -6.72 -59.918 -6.72 QT
-65.027 -6.72 L
-65.215 -6.72 -65.215 -6.97 QT
-65.183 -7.111 -65.168 -7.173 QT
-65.152 -7.236 -65.097 -7.314 QT
-65.043 -7.392 -64.965 -7.392 QT
-63.808 -7.392 -63.355 -7.517 QT
-63.105 -7.595 -62.996 -8.033 QT
-61.73 -13.142 L
-67.418 -13.142 L
-68.715 -7.954 L
-68.761 -7.72 -68.761 -7.689 QT
-68.761 -7.486 -68.527 -7.47 QT
-68.168 -7.392 -67.152 -7.392 QT
-66.965 -7.392 -66.965 -7.142 QT
-67.027 -6.892 -67.074 -6.806 QT
-67.121 -6.72 -67.293 -6.72 QT
-72.402 -6.72 L
cp
f
GR
GS
[0.75 0 0 0.75 54.96948 149.24989] CT
0.149 GC
N
-55.056 -13.494 M
-55.056 -13.947 L
-53.431 -13.947 -53.431 -14.369 QT
-53.431 -21.182 L
-54.103 -20.869 -55.134 -20.869 QT
-55.134 -21.322 L
-53.541 -21.322 -52.728 -22.15 QT
-52.541 -22.15 L
-52.494 -22.15 -52.455 -22.119 QT
-52.416 -22.088 -52.416 -22.041 QT
-52.416 -14.369 L
-52.416 -13.947 -50.791 -13.947 QT
-50.791 -13.494 L
-55.056 -13.494 L
cp
f
GR
GS
[0.75 0 0 0.75 54.96948 149.24989] CT
0.149 GC
N
-48.574 -10.236 M
-48.574 -11.408 L
-43.558 -11.408 L
-43.558 -10.236 L
-48.574 -10.236 L
cp
f
GR
GS
[0.75 0 0 0.75 54.96948 149.24989] CT
0.149 GC
N
-42.008 -6.72 M
-42.008 -7.392 L
-41.352 -7.392 -40.938 -7.494 QT
-40.524 -7.595 -40.524 -7.986 QT
-40.524 -13.173 L
-40.524 -13.689 -40.672 -13.915 QT
-40.82 -14.142 -41.11 -14.197 QT
-41.399 -14.251 -42.008 -14.251 QT
-42.008 -14.908 L
-39.242 -15.111 L
-39.242 -13.267 L
-38.867 -14.079 -38.117 -14.595 QT
-37.367 -15.111 -36.492 -15.111 QT
-35.18 -15.111 -34.516 -14.486 QT
-33.852 -13.861 -33.852 -12.548 QT
-33.852 -7.986 L
-33.852 -7.595 -33.43 -7.494 QT
-33.008 -7.392 -32.367 -7.392 QT
-32.367 -6.72 L
-36.711 -6.72 L
-36.711 -7.392 L
-36.07 -7.392 -35.649 -7.494 QT
-35.227 -7.595 -35.227 -7.986 QT
-35.227 -12.501 L
-35.227 -13.423 -35.5 -14.025 QT
-35.774 -14.626 -36.602 -14.626 QT
-37.711 -14.626 -38.422 -13.744 QT
-39.133 -12.861 -39.133 -11.736 QT
-39.133 -7.986 L
-39.133 -7.595 -38.711 -7.494 QT
-38.289 -7.392 -37.649 -7.392 QT
-37.649 -6.72 L
-42.008 -6.72 L
cp
f
GR
GS
[0.75 0 0 0.75 54.96948 149.24989] CT
0.149 GC
N
-27.45 -6.501 M
-28.591 -6.501 -29.567 -7.087 QT
-30.544 -7.673 -31.106 -8.642 QT
-31.669 -9.611 -31.669 -10.767 QT
-31.669 -11.642 -31.356 -12.447 QT
-31.044 -13.251 -30.466 -13.884 QT
-29.888 -14.517 -29.122 -14.876 QT
-28.356 -15.236 -27.45 -15.236 QT
-26.278 -15.236 -25.317 -14.619 QT
-24.356 -14.001 -23.802 -12.97 QT
-23.247 -11.939 -23.247 -10.767 QT
-23.247 -9.626 -23.809 -8.65 QT
-24.372 -7.673 -25.349 -7.087 QT
-26.325 -6.501 -27.45 -6.501 QT
cp
-27.45 -7.064 M
-25.934 -7.064 -25.419 -8.165 QT
-24.903 -9.267 -24.903 -10.986 QT
-24.903 -11.939 -25.005 -12.564 QT
-25.106 -13.189 -25.45 -13.704 QT
-25.669 -14.017 -25.997 -14.251 QT
-26.325 -14.486 -26.692 -14.611 QT
-27.059 -14.736 -27.45 -14.736 QT
-28.044 -14.736 -28.575 -14.47 QT
-29.106 -14.204 -29.466 -13.704 QT
-29.809 -13.158 -29.911 -12.517 QT
-30.013 -11.876 -30.013 -10.986 QT
-30.013 -9.908 -29.825 -9.064 QT
-29.638 -8.22 -29.075 -7.642 QT
-28.513 -7.064 -27.45 -7.064 QT
cp
f
GR
GS
[0.75 0 0 0.75 54.96948 149.24989] CT
0.149 GC
N
-22.382 -6.72 M
-22.382 -7.392 L
-21.726 -7.392 -21.312 -7.494 QT
-20.898 -7.595 -20.898 -7.986 QT
-20.898 -13.173 L
-20.898 -13.689 -21.046 -13.915 QT
-21.195 -14.142 -21.484 -14.197 QT
-21.773 -14.251 -22.382 -14.251 QT
-22.382 -14.908 L
-19.664 -15.111 L
-19.664 -13.267 L
-19.351 -14.079 -18.789 -14.595 QT
-18.226 -15.111 -17.414 -15.111 QT
-16.851 -15.111 -16.406 -14.783 QT
-15.96 -14.454 -15.96 -13.908 QT
-15.96 -13.564 -16.203 -13.306 QT
-16.445 -13.048 -16.804 -13.048 QT
-17.164 -13.048 -17.414 -13.298 QT
-17.664 -13.548 -17.664 -13.908 QT
-17.664 -14.408 -17.304 -14.626 QT
-17.414 -14.626 L
-18.179 -14.626 -18.664 -14.072 QT
-19.148 -13.517 -19.359 -12.689 QT
-19.57 -11.861 -19.57 -11.111 QT
-19.57 -7.986 L
-19.57 -7.392 -17.71 -7.392 QT
-17.71 -6.72 L
-22.382 -6.72 L
cp
f
GR
GS
[0.75 0 0 0.75 54.96948 149.24989] CT
0.149 GC
N
-14.993 -6.72 M
-14.993 -7.392 L
-14.337 -7.392 -13.923 -7.494 QT
-13.509 -7.595 -13.509 -7.986 QT
-13.509 -13.173 L
-13.509 -13.689 -13.657 -13.915 QT
-13.806 -14.142 -14.095 -14.197 QT
-14.384 -14.251 -14.993 -14.251 QT
-14.993 -14.908 L
-12.227 -15.111 L
-12.227 -13.267 L
-11.852 -14.079 -11.102 -14.595 QT
-10.352 -15.111 -9.477 -15.111 QT
-7.29 -15.111 -6.915 -13.329 QT
-6.524 -14.126 -5.79 -14.619 QT
-5.056 -15.111 -4.196 -15.111 QT
-3.321 -15.111 -2.735 -14.837 QT
-2.149 -14.564 -1.852 -13.994 QT
-1.556 -13.423 -1.556 -12.548 QT
-1.556 -7.986 L
-1.556 -7.595 -1.134 -7.494 QT
-0.712 -7.392 -0.071 -7.392 QT
-0.071 -6.72 L
-4.415 -6.72 L
-4.415 -7.392 L
-3.774 -7.392 -3.352 -7.494 QT
-2.931 -7.595 -2.931 -7.986 QT
-2.931 -12.501 L
-2.931 -13.454 -3.204 -14.04 QT
-3.477 -14.626 -4.306 -14.626 QT
-5.399 -14.626 -6.118 -13.744 QT
-6.837 -12.861 -6.837 -11.736 QT
-6.837 -7.986 L
-6.837 -7.595 -6.415 -7.494 QT
-5.993 -7.392 -5.352 -7.392 QT
-5.352 -6.72 L
-9.696 -6.72 L
-9.696 -7.392 L
-9.056 -7.392 -8.634 -7.494 QT
-8.212 -7.595 -8.212 -7.986 QT
-8.212 -12.501 L
-8.212 -13.423 -8.485 -14.025 QT
-8.759 -14.626 -9.587 -14.626 QT
-10.696 -14.626 -11.407 -13.744 QT
-12.118 -12.861 -12.118 -11.736 QT
-12.118 -7.986 L
-12.118 -7.595 -11.696 -7.494 QT
-11.274 -7.392 -10.634 -7.392 QT
-10.634 -6.72 L
-14.993 -6.72 L
cp
f
GR
GS
[0.75 0 0 0.75 0 0] CT
0 0.447 0.741 RC
1 LJ
2.667 LW
N
119 366.896 M
119.333 366.896 L
119.333 366.896 L
119.333 366.896 L
120 366.896 L
120 366.896 L
120.667 366.896 L
120.667 366.896 L
121.333 366.896 L
121.333 366.896 L
121.333 366.896 L
122 366.895 L
122 366.895 L
122 366.895 L
122.667 366.895 L
122.667 366.895 L
123.333 366.895 L
123.333 366.895 L
124 366.895 L
124 366.895 L
124.667 366.895 L
124.667 366.895 L
125.333 366.895 L
125.333 366.895 L
126 366.894 L
126 366.894 L
126.667 366.894 L
126.667 366.894 L
127.333 366.894 L
127.333 366.894 L
128 366.893 L
128 366.893 L
128.667 366.893 L
128.667 366.893 L
129.333 366.893 L
129.333 366.893 L
130 366.892 L
130 366.892 L
130.667 366.892 L
130.667 366.892 L
131.333 366.891 L
131.333 366.891 L
132 366.891 L
132 366.891 L
132.667 366.89 L
132.667 366.89 L
133.333 366.89 L
133.333 366.89 L
134 366.889 L
134 366.889 L
134.667 366.889 L
134.667 366.889 L
135.333 366.888 L
135.333 366.888 L
136 366.888 L
136 366.888 L
136.667 366.887 L
136.667 366.887 L
137.333 366.886 L
137.333 366.886 L
138 366.886 L
138 366.886 L
138.667 366.885 L
138.667 366.885 L
139.333 366.884 L
139.333 366.884 L
140 366.883 L
140 366.883 L
140.667 366.883 L
140.667 366.883 L
141.333 366.882 L
141.333 366.882 L
142 366.881 L
142 366.881 L
142.667 366.88 L
142.667 366.88 L
143.333 366.88 L
143.333 366.88 L
144 366.879 L
144 366.879 L
144.667 366.878 L
144.667 366.878 L
145.333 366.877 L
145.333 366.877 L
146 366.876 L
146 366.876 L
146.667 366.875 L
146.667 366.875 L
147.333 366.874 L
147.333 366.874 L
148 366.873 L
148 366.873 L
148.667 366.872 L
148.667 366.872 L
149.333 366.871 L
149.333 366.871 L
150 366.87 L
150 366.87 L
150.667 366.869 L
150.667 366.869 L
151.333 366.868 L
151.333 366.868 L
152 366.867 L
152 366.867 L
152.667 366.866 L
152.667 366.866 L
153.333 366.865 L
153.333 366.865 L
154 366.864 L
154 366.864 L
154.667 366.863 L
154.667 366.863 L
155.333 366.862 L
155.333 366.862 L
156 366.861 L
156 366.861 L
156.667 366.86 L
156.667 366.86 L
157.333 366.859 L
157.333 366.859 L
158 366.858 L
158 366.858 L
158.667 366.856 L
158.667 366.856 L
159.333 366.855 L
159.333 366.855 L
160 366.854 L
160 366.854 L
160.667 366.853 L
160.667 366.853 L
161.333 366.852 L
161.333 366.852 L
162 366.851 L
162 366.851 L
162.667 366.849 L
162.667 366.849 L
163.333 366.848 L
163.333 366.848 L
164 366.847 L
164 366.847 L
164.667 366.846 L
164.667 366.846 L
165.333 366.845 L
165.333 366.845 L
166 366.844 L
166 366.844 L
166.667 366.843 L
166.667 366.843 L
167.333 366.841 L
167.333 366.841 L
168 366.84 L
168 366.84 L
168.667 366.839 L
168.667 366.839 L
169.333 366.838 L
169.333 366.838 L
170 366.837 L
170 366.837 L
170.667 366.835 L
170.667 366.835 L
171.333 366.834 L
171.333 366.834 L
172 366.833 L
172 366.833 L
172.667 366.832 L
172.667 366.832 L
173.333 366.83 L
173.333 366.83 L
174 366.829 L
174 366.829 L
174.667 366.828 L
174.667 366.828 L
175.333 366.827 L
175.333 366.827 L
176 366.825 L
176 366.825 L
176.667 366.824 L
176.667 366.824 L
177.333 366.823 L
177.333 366.823 L
178 366.822 L
178 366.822 L
178.667 366.821 L
178.667 366.821 L
179.333 366.82 L
179.333 366.82 L
180 366.818 L
180 366.818 L
180.667 366.817 L
180.667 366.817 L
181.333 366.816 L
181.333 366.816 L
182 366.815 L
182 366.815 L
182.667 366.813 L
182.667 366.813 L
183.333 366.812 L
183.333 366.812 L
184 366.811 L
184 366.811 L
184.667 366.809 L
184.667 366.809 L
185.333 366.808 L
185.333 366.808 L
186 366.807 L
186 366.807 L
186.667 366.805 L
186.667 366.805 L
187.333 366.804 L
187.333 366.804 L
188 366.803 L
188 366.803 L
188.667 366.801 L
188.667 366.801 L
189.333 366.8 L
189.333 366.8 L
190 366.799 L
190 366.799 L
190.667 366.797 L
190.667 366.797 L
191.333 366.796 L
191.333 366.796 L
192 366.795 L
192 366.795 L
192.667 366.793 L
192.667 366.793 L
193.333 366.792 L
193.333 366.792 L
194 366.791 L
194 366.791 L
194.667 366.789 L
194.667 366.789 L
195.333 366.788 L
195.333 366.788 L
196 366.787 L
196 366.787 L
196.667 366.785 L
196.667 366.785 L
197.333 366.784 L
197.333 366.784 L
198 366.783 L
198 366.783 L
198.667 366.781 L
198.667 366.781 L
199.333 366.78 L
199.333 366.78 L
200 366.779 L
200 366.779 L
200.667 366.777 L
200.667 366.777 L
201.333 366.776 L
201.333 366.776 L
202 366.775 L
202 366.775 L
202.667 366.773 L
202.667 366.773 L
203.333 366.772 L
203.333 366.772 L
204 366.77 L
204 366.77 L
204.667 366.769 L
204.667 366.769 L
205.333 366.768 L
205.333 366.768 L
206 366.766 L
206 366.766 L
206.667 366.765 L
206.667 366.765 L
207.333 366.764 L
207.333 366.764 L
208 366.762 L
208 366.762 L
208.667 366.761 L
208.667 366.761 L
209.333 366.76 L
209.333 366.76 L
210 366.758 L
210 366.758 L
210.667 366.757 L
210.667 366.757 L
211.333 366.756 L
211.333 366.756 L
212 366.755 L
212 366.755 L
212.667 366.753 L
212.667 366.753 L
213.333 366.752 L
213.333 366.752 L
214 366.751 L
214 366.751 L
214.667 366.75 L
214.667 366.75 L
215.333 366.748 L
215.333 366.748 L
216 366.747 L
216 366.747 L
216.667 366.746 L
216.667 366.746 L
217.333 366.745 L
217.333 366.745 L
218 366.743 L
218 366.743 L
218.667 366.742 L
218.667 366.742 L
219.333 366.741 L
219.333 366.741 L
220 366.739 L
220 366.739 L
220.667 366.738 L
220.667 366.738 L
221.333 366.737 L
221.333 366.737 L
222 366.735 L
222 366.735 L
222.667 366.734 L
222.667 366.734 L
223.333 366.733 L
223.333 366.733 L
224 366.731 L
224 366.731 L
224.667 366.73 L
224.667 366.73 L
225.333 366.729 L
225.333 366.729 L
226 366.727 L
226 366.727 L
226.667 366.726 L
226.667 366.726 L
227.333 366.725 L
227.333 366.725 L
228 366.723 L
228 366.723 L
228.667 366.722 L
228.667 366.722 L
229.333 366.72 L
229.333 366.72 L
230 366.719 L
230 366.719 L
230.667 366.718 L
230.667 366.718 L
231.333 366.716 L
231.333 366.716 L
232 366.715 L
232 366.715 L
232.667 366.714 L
232.667 366.714 L
233.333 366.712 L
233.333 366.712 L
234 366.711 L
234 366.711 L
234.667 366.71 L
234.667 366.71 L
235.333 366.708 L
235.333 366.708 L
236 366.707 L
236 366.707 L
236.667 366.706 L
236.667 366.706 L
237.333 366.704 L
237.333 366.704 L
238 366.703 L
238 366.703 L
238.667 366.702 L
238.667 366.702 L
239.333 366.7 L
239.333 366.7 L
240 366.699 L
240 366.699 L
240.667 366.698 L
240.667 366.698 L
241.333 366.696 L
241.333 366.696 L
242 366.695 L
242 366.695 L
242.667 366.694 L
242.667 366.694 L
243.333 366.693 L
243.333 366.693 L
244 366.691 L
244 366.691 L
244.667 366.69 L
244.667 366.69 L
245.333 366.689 L
245.333 366.689 L
246 366.687 L
246 366.687 L
246.667 366.686 L
246.667 366.686 L
247.333 366.685 L
247.333 366.685 L
248 366.683 L
248 366.683 L
248.667 366.682 L
248.667 366.682 L
249.333 366.681 L
249.333 366.681 L
250 366.679 L
250 366.679 L
250.667 366.678 L
250.667 366.678 L
251.333 366.677 L
251.333 366.677 L
252 366.676 L
252 366.676 L
252.667 366.674 L
252.667 366.674 L
253.333 366.673 L
253.333 366.673 L
254 366.672 L
254 366.672 L
254.667 366.67 L
254.667 366.67 L
255.333 366.669 L
255.333 366.669 L
256 366.668 L
256 366.668 L
256.667 366.667 L
256.667 366.667 L
257.333 366.665 L
257.333 366.665 L
258 366.664 L
258 366.664 L
258.667 366.663 L
258.667 366.663 L
259.333 366.661 L
259.333 366.661 L
260 366.66 L
260 366.66 L
260.667 366.658 L
260.667 366.658 L
261.333 366.657 L
261.333 366.657 L
262 366.656 L
262 366.656 L
262.667 366.654 L
262.667 366.654 L
263.333 366.653 L
263.333 366.653 L
264 366.652 L
264 366.652 L
264.667 366.65 L
264.667 366.65 L
265.333 366.649 L
265.333 366.649 L
266 366.648 L
266 366.648 L
266.667 366.646 L
266.667 366.646 L
267.333 366.645 L
267.333 366.645 L
268 366.643 L
268 366.643 L
268.667 366.642 L
268.667 366.642 L
269.333 366.64 L
269.333 366.64 L
270 366.639 L
270 366.639 L
270.667 366.638 L
270.667 366.638 L
271.333 366.636 L
271.333 366.636 L
272 366.635 L
272 366.635 L
272.667 366.633 L
272.667 366.633 L
273.333 366.632 L
273.333 366.632 L
274 366.631 L
274 366.631 L
274.667 366.629 L
274.667 366.629 L
275.333 366.628 L
275.333 366.628 L
276 366.626 L
276 366.626 L
276.667 366.624 L
276.667 366.624 L
277.333 366.623 L
277.333 366.623 L
278 366.621 L
278 366.621 L
278.667 366.62 L
278.667 366.62 L
279.333 366.618 L
279.333 366.618 L
280 366.617 L
280 366.617 L
280.667 366.615 L
280.667 366.615 L
281.333 366.614 L
281.333 366.614 L
282 366.612 L
282 366.612 L
282.667 366.61 L
282.667 366.61 L
283.333 366.609 L
283.333 366.609 L
284 366.607 L
284 366.607 L
284.667 366.605 L
284.667 366.605 L
285.333 366.604 L
285.333 366.604 L
286 366.602 L
286 366.602 L
286.667 366.6 L
286.667 366.6 L
287.333 366.598 L
287.333 366.598 L
288 366.597 L
288 366.597 L
288.667 366.595 L
288.667 366.595 L
289.333 366.593 L
289.333 366.593 L
290 366.591 L
290 366.591 L
290.667 366.589 L
290.667 366.589 L
291.333 366.587 L
291.333 366.587 L
292 366.585 L
292 366.585 L
292.667 366.583 L
292.667 366.583 L
293.333 366.582 L
293.333 366.582 L
294 366.58 L
294 366.58 L
294.667 366.578 L
294.667 366.578 L
295.333 366.576 L
295.333 366.576 L
296 366.575 L
296 366.575 L
296.667 366.573 L
296.667 366.573 L
297.333 366.572 L
297.333 366.572 L
298 366.57 L
298 366.57 L
298.667 366.569 L
298.667 366.569 L
299.333 366.567 L
299.333 366.567 L
300 366.566 L
300 366.566 L
300.667 366.564 L
300.667 366.564 L
301.333 366.563 L
301.333 366.563 L
302 366.561 L
302 366.561 L
302.667 366.559 L
302.667 366.559 L
303.333 366.558 L
303.333 366.558 L
304 366.556 L
304 366.556 L
304.667 366.554 L
304.667 366.554 L
305.333 366.552 L
305.333 366.552 L
306 366.55 L
306 366.55 L
306.667 366.548 L
306.667 366.548 L
307.333 366.546 L
307.333 366.546 L
308 366.544 L
308 366.544 L
308.667 366.542 L
308.667 366.542 L
309.333 366.541 L
309.333 366.541 L
310 366.539 L
310 366.539 L
310.667 366.537 L
310.667 366.537 L
311.333 366.535 L
311.333 366.535 L
312 366.533 L
312 366.533 L
312.667 366.531 L
312.667 366.531 L
313.333 366.529 L
313.333 366.529 L
314 366.527 L
314 366.527 L
314.667 366.525 L
314.667 366.525 L
315.333 366.523 L
315.333 366.523 L
316 366.521 L
316 366.521 L
316.667 366.519 L
316.667 366.519 L
317.333 366.517 L
317.333 366.517 L
318 366.514 L
318 366.514 L
318.667 366.512 L
318.667 366.512 L
319.333 366.51 L
319.333 366.51 L
320 366.508 L
320 366.508 L
320.667 366.506 L
320.667 366.506 L
321.333 366.503 L
321.333 366.503 L
322 366.501 L
322 366.501 L
322.667 366.499 L
322.667 366.499 L
323.333 366.496 L
323.333 366.496 L
324 366.494 L
324 366.494 L
324.667 366.491 L
324.667 366.491 L
325.333 366.489 L
325.333 366.489 L
326 366.486 L
326 366.486 L
326.667 366.484 L
326.667 366.484 L
327.333 366.481 L
327.333 366.481 L
328 366.478 L
328 366.478 L
328.667 366.475 L
328.667 366.475 L
329.333 366.472 L
329.333 366.472 L
330 366.47 L
330 366.47 L
330.667 366.467 L
330.667 366.467 L
331.333 366.464 L
331.333 366.464 L
332 366.461 L
332 366.461 L
332.667 366.459 L
332.667 366.459 L
333.333 366.456 L
333.333 366.456 L
334 366.453 L
334 366.453 L
334.667 366.45 L
334.667 366.45 L
335.333 366.447 L
335.333 366.447 L
336 366.443 L
336 366.443 L
336.667 366.44 L
336.667 366.44 L
337.333 366.437 L
337.333 366.437 L
338 366.435 L
338 366.435 L
338.667 366.432 L
338.667 366.432 L
339.333 366.429 L
339.333 366.429 L
340 366.426 L
340 366.426 L
340.667 366.424 L
340.667 366.424 L
341.333 366.421 L
341.333 366.421 L
342 366.418 L
342 366.418 L
342.667 366.416 L
342.667 366.416 L
343.333 366.413 L
343.333 366.413 L
344 366.411 L
344 366.411 L
344.667 366.409 L
344.667 366.409 L
345.333 366.406 L
345.333 366.406 L
346 366.404 L
346 366.404 L
346.667 366.401 L
346.667 366.401 L
347.333 366.398 L
347.333 366.398 L
348 366.395 L
348 366.395 L
348.667 366.393 L
348.667 366.393 L
349.333 366.39 L
349.333 366.39 L
350 366.388 L
350 366.388 L
350.667 366.384 L
350.667 366.384 L
351.333 366.381 L
351.333 366.381 L
352 366.379 L
352 366.379 L
352.667 366.377 L
352.667 366.377 L
353.333 366.375 L
353.333 366.375 L
354 366.373 L
354 366.373 L
354.667 366.37 L
354.667 366.37 L
355.333 366.368 L
355.333 366.368 L
356 366.366 L
356 366.366 L
356.667 366.364 L
356.667 366.364 L
357.333 366.362 L
357.333 366.362 L
358 366.36 L
358 366.36 L
358.667 366.358 L
358.667 366.358 L
359.333 366.356 L
359.333 366.356 L
360 366.354 L
360 366.354 L
360.667 366.352 L
360.667 366.352 L
361.333 366.35 L
361.333 366.35 L
362 366.349 L
362 366.349 L
362.667 366.347 L
362.667 366.347 L
363.333 366.346 L
363.333 366.346 L
364 366.344 L
364 366.344 L
364.667 366.343 L
364.667 366.343 L
365.333 366.341 L
365.333 366.341 L
366 366.34 L
366 366.34 L
366.667 366.338 L
366.667 366.338 L
367.333 366.337 L
367.333 366.337 L
368 366.335 L
368 366.335 L
368.667 366.334 L
368.667 366.334 L
369.333 366.333 L
369.333 366.333 L
370 366.332 L
370 366.332 L
370.667 366.331 L
370.667 366.331 L
371.333 366.329 L
371.333 366.329 L
372 366.328 L
372 366.328 L
372.667 366.327 L
372.667 366.327 L
373.333 366.325 L
373.333 366.325 L
374 366.324 L
374 366.324 L
374.667 366.322 L
374.667 366.322 L
375.333 366.32 L
375.333 366.32 L
376 366.319 L
376 366.319 L
376.667 366.318 L
376.667 366.318 L
377.333 366.316 L
377.333 366.316 L
378 366.315 L
378 366.315 L
378.667 366.313 L
378.667 366.313 L
379.333 366.312 L
379.333 366.312 L
380 366.31 L
380 366.31 L
380.667 366.309 L
380.667 366.309 L
381.333 366.307 L
381.333 366.307 L
382 366.305 L
382 366.305 L
382.667 366.304 L
382.667 366.304 L
383.333 366.302 L
383.333 366.302 L
384 366.3 L
384 366.3 L
384.667 366.298 L
384.667 366.298 L
385.333 366.296 L
385.333 366.296 L
386 366.294 L
386 366.294 L
386.667 366.291 L
386.667 366.291 L
387.333 366.289 L
387.333 366.289 L
388 366.286 L
388 366.286 L
388.667 366.283 L
388.667 366.283 L
389.333 366.281 L
389.333 366.281 L
390 366.278 L
390 366.278 L
390.667 366.275 L
390.667 366.275 L
391.333 366.272 L
391.333 366.272 L
392 366.269 L
392 366.269 L
392.667 366.266 L
392.667 366.266 L
393.333 366.263 L
393.333 366.263 L
394 366.26 L
394 366.26 L
394.667 366.258 L
394.667 366.258 L
395.333 366.255 L
395.333 366.255 L
396 366.252 L
396 366.252 L
396.667 366.25 L
396.667 366.25 L
397.333 366.247 L
397.333 366.247 L
398 366.245 L
398 366.245 L
398.667 366.242 L
398.667 366.242 L
399.333 366.24 L
399.333 366.24 L
400 366.238 L
400 366.238 L
400.667 366.236 L
400.667 366.236 L
401.333 366.234 L
401.333 366.234 L
402 366.232 L
402 366.232 L
402.667 366.23 L
402.667 366.23 L
403.333 366.229 L
403.333 366.229 L
404 366.227 L
404 366.227 L
404.667 366.226 L
404.667 366.226 L
405.333 366.224 L
405.333 366.224 L
406 366.223 L
406 366.223 L
406.667 366.221 L
406.667 366.221 L
407.333 366.22 L
407.333 366.22 L
408 366.219 L
408 366.219 L
408.667 366.217 L
408.667 366.217 L
409.333 366.216 L
409.333 366.216 L
410 366.214 L
410 366.214 L
410.667 366.213 L
410.667 366.213 L
411.333 366.211 L
411.333 366.211 L
412 366.21 L
412 366.21 L
412.667 366.208 L
412.667 366.208 L
413.333 366.206 L
413.333 366.206 L
414 366.205 L
414 366.205 L
414.667 366.204 L
414.667 366.204 L
415.333 366.203 L
415.333 366.203 L
416 366.201 L
416 366.201 L
416.667 366.2 L
416.667 366.2 L
417.333 366.198 L
417.333 366.198 L
418 366.196 L
418 366.196 L
418.667 366.195 L
418.667 366.195 L
419.333 366.193 L
419.333 366.193 L
420 366.191 L
420 366.191 L
420.667 366.19 L
420.667 366.19 L
421.333 366.188 L
421.333 366.188 L
422 366.186 L
422 366.186 L
422.667 366.184 L
422.667 366.184 L
423.333 366.183 L
423.333 366.183 L
424 366.181 L
424 366.181 L
424.667 366.18 L
424.667 366.18 L
425.333 366.178 L
425.333 366.178 L
426 366.177 L
426 366.177 L
426.667 366.175 L
426.667 366.175 L
427.333 366.172 L
427.333 366.172 L
428 366.17 L
428 366.17 L
428.667 366.167 L
428.667 366.167 L
429.333 366.165 L
429.333 366.165 L
430 366.164 L
430 366.164 L
430.667 366.162 L
430.667 366.162 L
431.333 366.16 L
431.333 366.16 L
432 366.158 L
432 366.158 L
432.667 366.157 L
432.667 366.157 L
433.333 366.155 L
433.333 366.155 L
434 366.154 L
434 366.154 L
434.667 366.153 L
434.667 366.153 L
435.333 366.152 L
435.333 366.152 L
436 366.151 L
436 366.151 L
436.667 366.151 L
436.667 366.151 L
437.333 366.15 L
437.333 366.15 L
438 366.149 L
438 366.149 L
438 366.149 L
438.667 366.148 L
438.667 366.148 L
438.667 366.148 L
439.333 366.147 L
439.333 366.147 L
440 366.146 L
440 366.146 L
440.667 366.144 L
440.667 366.144 L
441.333 366.143 L
441.333 366.143 L
441.333 366.143 L
442 366.142 L
442 366.142 L
442 366.142 L
442.667 366.141 L
442.667 366.141 L
443.333 366.14 L
443.333 366.14 L
444 366.139 L
444 366.139 L
444 366.139 L
444.667 366.138 L
444.667 366.138 L
445.333 366.137 L
445.333 366.137 L
446 366.135 L
446 366.135 L
446.667 366.134 L
446.667 366.134 L
447.333 366.133 L
447.333 366.133 L
448 366.131 L
448 366.131 L
448.667 366.13 L
448.667 366.13 L
449.333 366.129 L
449.333 366.129 L
450 366.128 L
450 366.128 L
450.667 366.127 L
450.667 366.127 L
451.333 366.126 L
451.333 366.126 L
452 366.124 L
452 366.124 L
452 366.124 L
452.667 366.123 L
452.667 366.123 L
453.333 366.122 L
453.333 366.122 L
454 366.121 L
454 366.121 L
454 366.121 L
454.667 366.12 L
454.667 366.12 L
455.333 366.119 L
455.333 366.119 L
456 366.118 L
456 366.118 L
456 366.118 L
456.667 366.118 L
456.667 366.118 L
457.333 366.117 L
457.333 366.117 L
457.333 366.117 L
458 366.116 L
458 366.116 L
458 366.116 L
458.667 366.115 L
458.667 366.115 L
459.333 366.115 L
459.333 366.115 L
460 366.114 L
460 366.114 L
460.667 366.113 L
460.667 366.113 L
460.667 366.113 L
461.333 366.113 L
461.333 366.113 L
462 366.112 L
462 366.112 L
462 366.112 L
462.667 366.111 L
462.667 366.111 L
462.667 366.111 L
463.333 366.111 L
463.333 366.111 L
463.333 366.111 L
464 366.11 L
464 366.11 L
464.667 366.109 L
464.667 366.109 L
464.667 366.109 L
465.333 366.108 L
465.333 366.108 L
466 366.108 L
466 366.108 L
466 366.108 L
466.667 366.107 L
466.667 366.107 L
467.333 366.106 L
467.333 366.106 L
467.333 366.106 L
468 366.105 L
468 366.105 L
468 366.105 L
468.667 366.105 L
468.667 366.105 L
469.333 366.104 L
469.333 366.104 L
469.333 366.104 L
470 366.103 L
470 366.103 L
470.667 366.102 L
470.667 366.102 L
470.667 366.102 L
471.333 366.102 L
471.333 366.102 L
472 366.101 L
472 366.101 L
472.667 366.1 L
472.667 366.1 L
473.333 366.099 L
473.333 366.099 L
474 366.098 L
474 366.098 L
474.667 366.097 L
474.667 366.097 L
475.333 366.095 L
475.333 366.095 L
476 366.094 L
476 366.094 L
476.667 366.092 L
476.667 366.092 L
477.333 366.091 L
477.333 366.091 L
478 366.089 L
478 366.089 L
478.667 366.088 L
478.667 366.088 L
479.333 366.086 L
479.333 366.086 L
480 366.085 L
480 366.085 L
480.667 366.083 L
480.667 366.083 L
481.333 366.082 L
481.333 366.082 L
482 366.081 L
482 366.081 L
482.667 366.08 L
482.667 366.08 L
483.333 366.079 L
483.333 366.079 L
483.333 366.079 L
484 366.078 L
484 366.078 L
484.667 366.077 L
484.667 366.077 L
484.667 366.077 L
485.333 366.076 L
485.333 366.076 L
486 366.075 L
486 366.075 L
486.667 366.074 L
486.667 366.074 L
486.667 366.074 L
487.333 366.073 L
487.333 366.073 L
488 366.072 L
488 366.072 L
488.667 366.071 L
488.667 366.071 L
488.667 366.071 L
489.333 366.07 L
489.333 366.07 L
490 366.069 L
490 366.069 L
490.667 366.068 L
490.667 366.068 L
490.667 366.068 L
491.333 366.067 L
491.333 366.067 L
492 366.066 L
492 366.066 L
492.667 366.065 L
492.667 366.065 L
493.333 366.064 L
493.333 366.064 L
494 366.063 L
494 366.063 L
494.667 366.062 L
494.667 366.062 L
495.333 366.061 L
495.333 366.061 L
496 366.06 L
496 366.06 L
496 366.06 L
496.667 366.059 L
496.667 366.059 L
497.333 366.059 L
497.333 366.059 L
498 366.058 L
498 366.058 L
498.667 366.057 L
498.667 366.057 L
499.333 366.056 L
499.333 366.056 L
500 366.055 L
500 366.055 L
500.667 366.054 L
500.667 366.054 L
501.333 366.053 L
501.333 366.053 L
502 366.052 L
502 366.052 L
502.667 366.05 L
502.667 366.05 L
503.333 366.049 L
503.333 366.049 L
504 366.047 L
504 366.047 L
504.667 366.045 L
504.667 366.045 L
505.333 366.044 L
505.333 366.044 L
506 366.042 L
506 366.042 L
506.667 366.041 L
506.667 366.041 L
507 366.04 L
S
GR
GS
[0.75 0 0 0.75 0 0] CT
0.851 0.325 0.098 RC
1 LJ
2.667 LW
N
119 366.896 M
119.333 366.896 L
119.333 366.896 L
119.333 366.896 L
120 366.896 L
120 366.896 L
120.667 366.896 L
120.667 366.896 L
121.333 366.896 L
121.333 366.896 L
121.333 366.896 L
122 366.895 L
122 366.895 L
122.667 366.895 L
122.667 366.895 L
123.333 366.895 L
123.333 366.895 L
124 366.895 L
124 366.895 L
124.667 366.895 L
124.667 366.895 L
125.333 366.895 L
125.333 366.895 L
126 366.894 L
126 366.894 L
126.667 366.894 L
126.667 366.894 L
127.333 366.894 L
127.333 366.894 L
128 366.893 L
128 366.893 L
128.667 366.893 L
128.667 366.893 L
129.333 366.893 L
129.333 366.893 L
130 366.892 L
130 366.892 L
130.667 366.892 L
130.667 366.892 L
131.333 366.891 L
131.333 366.891 L
132 366.891 L
132 366.891 L
132.667 366.89 L
132.667 366.89 L
133.333 366.89 L
133.333 366.89 L
134 366.889 L
134 366.889 L
134.667 366.889 L
134.667 366.889 L
135.333 366.888 L
135.333 366.888 L
136 366.888 L
136 366.888 L
136.667 366.887 L
136.667 366.887 L
137.333 366.886 L
137.333 366.886 L
138 366.886 L
138 366.886 L
138.667 366.885 L
138.667 366.885 L
139.333 366.884 L
139.333 366.884 L
140 366.884 L
140 366.884 L
140.667 366.883 L
140.667 366.883 L
141.333 366.882 L
141.333 366.882 L
142 366.881 L
142 366.881 L
142.667 366.881 L
142.667 366.881 L
143.333 366.88 L
143.333 366.88 L
144 366.879 L
144 366.879 L
144.667 366.878 L
144.667 366.878 L
145.333 366.877 L
145.333 366.877 L
146 366.876 L
146 366.876 L
146.667 366.876 L
146.667 366.876 L
147.333 366.875 L
147.333 366.875 L
148 366.874 L
148 366.874 L
148.667 366.873 L
148.667 366.873 L
149.333 366.872 L
149.333 366.872 L
150 366.871 L
150 366.871 L
150.667 366.87 L
150.667 366.87 L
151.333 366.869 L
151.333 366.869 L
152 366.868 L
152 366.868 L
152.667 366.867 L
152.667 366.867 L
153.333 366.866 L
153.333 366.866 L
154 366.865 L
154 366.865 L
154.667 366.864 L
154.667 366.864 L
155.333 366.863 L
155.333 366.863 L
156 366.862 L
156 366.862 L
156.667 366.861 L
156.667 366.861 L
157.333 366.86 L
157.333 366.86 L
158 366.858 L
158 366.858 L
158.667 366.857 L
158.667 366.857 L
159.333 366.856 L
159.333 366.856 L
160 366.855 L
160 366.855 L
160.667 366.854 L
160.667 366.854 L
161.333 366.853 L
161.333 366.853 L
162 366.852 L
162 366.852 L
162.667 366.851 L
162.667 366.851 L
163.333 366.849 L
163.333 366.849 L
164 366.848 L
164 366.848 L
164.667 366.847 L
164.667 366.847 L
165.333 366.846 L
165.333 366.846 L
166 366.845 L
166 366.845 L
166.667 366.843 L
166.667 366.843 L
167.333 366.842 L
167.333 366.842 L
168 366.841 L
168 366.841 L
168.667 366.84 L
168.667 366.84 L
169.333 366.838 L
169.333 366.838 L
170 366.837 L
170 366.837 L
170.667 366.836 L
170.667 366.836 L
171.333 366.834 L
171.333 366.834 L
172 366.833 L
172 366.833 L
172.667 366.832 L
172.667 366.832 L
173.333 366.83 L
173.333 366.83 L
174 366.829 L
174 366.829 L
174.667 366.828 L
174.667 366.828 L
175.333 366.826 L
175.333 366.826 L
176 366.825 L
176 366.825 L
176.667 366.824 L
176.667 366.824 L
177.333 366.822 L
177.333 366.822 L
178 366.821 L
178 366.821 L
178.667 366.819 L
178.667 366.819 L
179.333 366.818 L
179.333 366.818 L
180 366.817 L
180 366.817 L
180.667 366.815 L
180.667 366.815 L
181.333 366.814 L
181.333 366.814 L
182 366.812 L
182 366.812 L
182.667 366.811 L
182.667 366.811 L
183.333 366.809 L
183.333 366.809 L
184 366.807 L
184 366.807 L
184.667 366.806 L
184.667 366.806 L
185.333 366.804 L
185.333 366.804 L
186 366.802 L
186 366.802 L
186.667 366.801 L
186.667 366.801 L
187.333 366.799 L
187.333 366.799 L
188 366.797 L
188 366.797 L
188.667 366.795 L
188.667 366.795 L
189.333 366.793 L
189.333 366.793 L
190 366.791 L
190 366.791 L
190.667 366.79 L
190.667 366.79 L
191.333 366.788 L
191.333 366.788 L
192 366.786 L
192 366.786 L
192.667 366.783 L
192.667 366.783 L
193.333 366.781 L
193.333 366.781 L
194 366.779 L
194 366.779 L
194.667 366.777 L
194.667 366.777 L
195.333 366.775 L
195.333 366.775 L
196 366.773 L
196 366.773 L
196.667 366.771 L
196.667 366.771 L
197.333 366.769 L
197.333 366.769 L
198 366.767 L
198 366.767 L
198.667 366.765 L
198.667 366.765 L
199.333 366.763 L
199.333 366.763 L
200 366.761 L
200 366.761 L
200.667 366.759 L
200.667 366.759 L
201.333 366.756 L
201.333 366.756 L
202 366.754 L
202 366.754 L
202.667 366.752 L
202.667 366.752 L
203.333 366.75 L
203.333 366.75 L
204 366.748 L
204 366.748 L
204.667 366.746 L
204.667 366.746 L
205.333 366.743 L
205.333 366.743 L
206 366.741 L
206 366.741 L
206.667 366.739 L
206.667 366.739 L
207.333 366.737 L
207.333 366.737 L
208 366.735 L
208 366.735 L
208.667 366.733 L
208.667 366.733 L
209.333 366.73 L
209.333 366.73 L
210 366.728 L
210 366.728 L
210.667 366.726 L
210.667 366.726 L
211.333 366.723 L
211.333 366.723 L
212 366.721 L
212 366.721 L
212.667 366.718 L
212.667 366.718 L
213.333 366.716 L
213.333 366.716 L
214 366.713 L
214 366.713 L
214.667 366.711 L
214.667 366.711 L
215.333 366.708 L
215.333 366.708 L
216 366.706 L
216 366.706 L
216.667 366.704 L
216.667 366.704 L
217.333 366.701 L
217.333 366.701 L
218 366.699 L
218 366.699 L
218.667 366.697 L
218.667 366.697 L
219.333 366.694 L
219.333 366.694 L
220 366.691 L
220 366.691 L
220.667 366.689 L
220.667 366.689 L
221.333 366.686 L
221.333 366.686 L
222 366.683 L
222 366.683 L
222.667 366.68 L
222.667 366.68 L
223.333 366.677 L
223.333 366.677 L
224 366.674 L
224 366.674 L
224.667 366.671 L
224.667 366.671 L
225.333 366.668 L
225.333 366.668 L
226 366.665 L
226 366.665 L
226.667 366.662 L
226.667 366.662 L
227.333 366.658 L
227.333 366.658 L
228 366.654 L
228 366.654 L
228.667 366.65 L
228.667 366.65 L
229.333 366.646 L
229.333 366.646 L
230 366.642 L
230 366.642 L
230.667 366.638 L
230.667 366.638 L
231.333 366.635 L
231.333 366.635 L
232 366.631 L
232 366.631 L
232.667 366.628 L
232.667 366.628 L
233.333 366.624 L
233.333 366.624 L
234 366.621 L
234 366.621 L
234.667 366.618 L
234.667 366.618 L
235.333 366.614 L
235.333 366.614 L
236 366.611 L
236 366.611 L
236.667 366.608 L
236.667 366.608 L
237.333 366.605 L
237.333 366.605 L
238 366.602 L
238 366.602 L
238.667 366.599 L
238.667 366.599 L
239.333 366.596 L
239.333 366.596 L
240 366.594 L
240 366.594 L
240.667 366.591 L
240.667 366.591 L
241.333 366.588 L
241.333 366.588 L
242 366.585 L
242 366.585 L
242.667 366.582 L
242.667 366.582 L
243.333 366.579 L
243.333 366.579 L
244 366.576 L
244 366.576 L
244.667 366.573 L
244.667 366.573 L
245.333 366.57 L
245.333 366.57 L
246 366.567 L
246 366.567 L
246.667 366.564 L
246.667 366.564 L
247.333 366.56 L
247.333 366.56 L
248 366.557 L
248 366.557 L
248.667 366.553 L
248.667 366.553 L
249.333 366.549 L
249.333 366.549 L
250 366.544 L
250 366.544 L
250.667 366.539 L
250.667 366.539 L
251.333 366.533 L
251.333 366.533 L
252 366.527 L
252 366.527 L
252.667 366.521 L
252.667 366.521 L
253.333 366.515 L
253.333 366.515 L
254 366.508 L
254 366.508 L
254.667 366.5 L
254.667 366.5 L
255.333 366.495 L
255.333 366.495 L
256 366.489 L
256 366.489 L
256.667 366.482 L
256.667 366.482 L
257.333 366.475 L
257.333 366.475 L
258 366.469 L
258 366.469 L
258.667 366.461 L
258.667 366.461 L
259.333 366.45 L
259.333 366.45 L
260 366.44 L
260 366.44 L
260.667 366.428 L
260.667 366.428 L
261.333 366.417 L
261.333 366.417 L
262 366.41 L
262 366.41 L
262.667 366.403 L
262.667 366.403 L
263.333 366.396 L
263.333 366.396 L
264 366.39 L
264 366.39 L
264.667 366.386 L
264.667 366.386 L
265.333 366.383 L
265.333 366.383 L
266 366.381 L
266 366.381 L
266.667 366.379 L
266.667 366.379 L
267.333 366.377 L
267.333 366.377 L
268 366.376 L
268 366.376 L
268.667 366.375 L
268.667 366.375 L
269.333 366.374 L
269.333 366.374 L
270 366.373 L
270 366.373 L
270.667 366.373 L
270.667 366.373 L
271.333 366.372 L
271.333 366.372 L
272 366.371 L
272 366.371 L
272.667 366.37 L
272.667 366.37 L
273.333 366.369 L
273.333 366.369 L
274 366.368 L
274 366.368 L
274.667 366.367 L
274.667 366.367 L
275.333 366.365 L
275.333 366.365 L
276 366.363 L
276 366.363 L
276.667 366.361 L
276.667 366.361 L
277.333 366.359 L
277.333 366.359 L
278 366.357 L
278 366.357 L
278.667 366.355 L
278.667 366.355 L
279.333 366.354 L
279.333 366.354 L
280 366.353 L
280 366.353 L
280.667 366.352 L
280.667 366.352 L
280.667 366.352 L
281.333 366.352 L
281.333 366.352 L
282 366.351 L
282 366.351 L
282.667 366.35 L
282.667 366.35 L
283.333 366.349 L
283.333 366.349 L
284 366.348 L
284 366.348 L
284.667 366.347 L
284.667 366.347 L
285.333 366.345 L
285.333 366.345 L
286 366.344 L
286 366.344 L
286.667 366.343 L
286.667 366.343 L
287.333 366.342 L
287.333 366.342 L
287.333 366.342 L
288 366.341 L
288 366.341 L
288.667 366.341 L
288.667 366.341 L
289.333 366.34 L
289.333 366.34 L
289.333 366.34 L
290 366.339 L
290 366.339 L
290.667 366.338 L
290.667 366.338 L
291.333 366.336 L
291.333 366.336 L
292 366.334 L
292 366.334 L
292.667 366.331 L
292.667 366.331 L
293.333 366.327 L
293.333 366.327 L
294 366.322 L
294 366.322 L
294.667 366.318 L
294.667 366.318 L
295.333 366.314 L
295.333 366.314 L
296 366.309 L
296 366.309 L
296.667 366.305 L
296.667 366.305 L
297.333 366.301 L
297.333 366.301 L
298 366.297 L
298 366.297 L
298.667 366.293 L
298.667 366.293 L
299.333 366.289 L
299.333 366.289 L
300 366.285 L
300 366.285 L
300.667 366.278 L
300.667 366.278 L
301.333 366.27 L
301.333 366.27 L
302 366.261 L
302 366.261 L
302.667 366.25 L
302.667 366.25 L
303.333 366.237 L
303.333 366.237 L
304 366.222 L
304 366.222 L
304.667 366.2 L
304.667 366.2 L
305.333 366.168 L
305.333 366.168 L
306 366.134 L
306 366.134 L
306.667 366.12 L
306.667 366.12 L
307.333 366.109 L
307.333 366.109 L
308 366.101 L
308 366.101 L
308.667 366.096 L
308.667 366.096 L
309.333 366.089 L
309.333 366.089 L
310 366.082 L
310 366.082 L
310.667 366.064 L
310.667 366.064 L
311.333 366.036 L
311.333 366.036 L
312 366.022 L
312 366.022 L
312.667 366.013 L
312.667 366.013 L
313.333 366.002 L
313.333 366.002 L
314 365.99 L
314 365.99 L
314.667 365.979 L
314.667 365.979 L
315.333 365.968 L
315.333 365.968 L
316 365.937 L
316 365.937 L
316.667 365.909 L
316.667 365.909 L
317.333 365.897 L
317.333 365.897 L
318 365.888 L
318 365.888 L
318.667 365.885 L
318.667 365.885 L
319.333 365.88 L
319.333 365.88 L
320 365.878 L
320 365.878 L
320.667 365.872 L
320.667 365.872 L
321.333 365.864 L
321.333 365.864 L
322 365.852 L
322 365.852 L
322.667 365.838 L
322.667 365.838 L
323.107 365.834 L
323.333 365.835 L
323.333 365.835 L
323.753 365.835 L
324 365.835 L
324 365.835 L
324.667 365.837 L
324.667 365.837 L
325.333 365.839 L
325.333 365.839 L
326 365.843 L
326 365.843 L
326.667 365.847 L
326.667 365.847 L
326.962 365.847 L
327.333 365.847 L
327.333 365.847 L
327.908 365.847 L
328 365.847 L
328 365.847 L
328.667 365.85 L
328.667 365.85 L
329.133 365.851 L
329.333 365.851 L
329.333 365.851 L
329.791 365.85 L
330 365.851 L
330 365.851 L
330.667 365.855 L
330.667 365.855 L
331.333 365.859 L
331.333 365.859 L
332 365.862 L
332 365.862 L
332.667 365.866 L
332.667 365.866 L
333.333 365.868 L
333.333 365.868 L
334 365.869 L
334 365.869 L
334 365.869 L
334.536 365.869 L
334.667 365.869 L
334.667 365.869 L
335.333 365.868 L
335.333 365.868 L
336 365.866 L
336 365.866 L
336.667 365.862 L
336.667 365.862 L
337.333 365.857 L
337.333 365.857 L
338 365.85 L
338 365.85 L
338.667 365.849 L
338.667 365.849 L
338.667 365.849 L
339.333 365.847 L
339.333 365.847 L
340 365.846 L
340 365.846 L
340 365.846 L
340.515 365.846 L
340.667 365.846 L
340.667 365.846 L
341.333 365.846 L
341.333 365.846 L
341.333 365.846 L
342 365.843 L
342 365.843 L
342.667 365.839 L
342.667 365.839 L
343.333 365.83 L
343.333 365.83 L
343.816 365.819 L
344 365.822 L
344 365.822 L
344.667 365.829 L
344.667 365.829 L
345.328 365.832 L
345.333 365.832 L
345.333 365.832 L
345.484 365.832 L
346 365.83 L
346 365.83 L
346.667 365.818 L
346.667 365.818 L
347.333 365.801 L
347.333 365.801 L
348 365.785 L
348 365.785 L
348.667 365.769 L
348.667 365.769 L
349.333 365.739 L
349.333 365.739 L
350 365.722 L
350 365.722 L
350.667 365.696 L
350.667 365.696 L
351.333 365.674 L
351.333 365.674 L
352 365.632 L
352 365.632 L
352.667 365.577 L
352.667 365.577 L
353.333 365.513 L
353.333 365.513 L
354 365.414 L
354 365.414 L
354.583 365.383 L
354.667 365.383 L
354.667 365.383 L
354.667 365.383 L
355.333 365.392 L
355.333 365.392 L
355.749 365.394 L
356 365.393 L
356 365.393 L
356.667 365.389 L
356.667 365.389 L
357.333 365.383 L
357.333 365.383 L
357.59 365.378 L
358 365.386 L
358 365.386 L
358.443 365.394 L
358.667 365.389 L
358.667 365.389 L
359.126 365.356 L
359.333 365.358 L
359.333 365.358 L
359.353 365.358 L
360 365.363 L
360 365.363 L
360.545 365.368 L
360.667 365.368 L
360.667 365.368 L
360.822 365.368 L
361.333 365.366 L
361.333 365.366 L
361.987 365.361 L
362 365.361 L
362 365.361 L
362.04 365.361 L
362.667 365.359 L
362.667 365.359 L
363.333 365.355 L
363.333 365.355 L
364 365.349 L
364 365.349 L
364.663 365.344 L
364.667 365.344 L
364.667 365.344 L
365.043 365.342 L
365.321 365.344 L
365.333 365.344 L
365.333 365.344 L
366 365.338 L
366 365.338 L
366.667 365.326 L
366.667 365.326 L
367.333 365.309 L
367.333 365.309 L
368 365.294 L
368 365.294 L
368.667 365.281 L
368.667 365.281 L
369.333 365.258 L
369.333 365.258 L
370 365.238 L
370 365.238 L
370.021 365.237 L
370.315 365.247 L
370.667 365.245 L
370.667 365.245 L
370.668 365.245 L
371.333 365.222 L
371.333 365.222 L
372 365.188 L
372 365.188 L
372.667 365.155 L
372.667 365.155 L
373.328 365.091 L
373.333 365.092 L
373.333 365.092 L
373.352 365.092 L
373.763 365.011 L
374 365.052 L
374 365.052 L
374.45 365.072 L
374.667 365.064 L
374.667 365.064 L
375.333 365.033 L
375.333 365.033 L
375.953 364.872 L
376 364.879 L
376 364.879 L
376.095 364.885 L
376.667 364.819 L
376.667 364.819 L
377.319 364.671 L
377.333 364.672 L
377.333 364.672 L
377.341 364.673 L
378 364.513 L
378 364.513 L
378.667 363.811 L
378.667 363.811 L
379.253 363.676 L
379.333 363.683 L
379.333 363.683 L
379.343 363.685 L
380 363.612 L
380 363.612 L
380.618 363.476 L
380.667 363.481 L
380.667 363.481 L
380.67 363.481 L
381.25 159.093 L
381.333 161.693 L
381.333 161.693 L
381.36 161.694 L
381.67 68.99 L
382 83.944 L
382 83.944 L
382.208 85.493 L
382.282 68.272 L
382.667 77.153 L
382.667 77.153 L
383.313 77.153 L
383.333 77.153 L
383.333 77.153 L
383.484 77.153 L
384 77.153 L
384 77.153 L
384.425 77.153 L
384.667 77.153 L
384.667 77.153 L
385.288 77.153 L
385.333 77.153 L
385.333 77.153 L
385.795 77.153 L
385.989 77.153 L
386 77.153 L
386 77.153 L
386.083 77.896 L
386.646 60.433 L
386.667 60.604 L
386.667 60.603 L
386.807 64.523 L
387.27 58.02 L
387.333 58.034 L
387.333 58.034 L
387.83 58.042 L
387.842 58.028 L
388 58.031 L
388 58.031 L
388.288 60.613 L
388.476 55.794 L
388.667 59.958 L
388.667 59.958 L
388.727 60.179 L
388.838 52.327 L
389.333 53.184 L
389.333 53.184 L
389.699 60.329 L
389.954 44.972 L
390 48.467 L
390 48.467 L
390.019 49.147 L
390.245 38.839 L
390.667 40.815 L
390.667 40.815 L
391.269 40.815 L
391.282 40.815 L
391.333 40.815 L
391.333 40.815 L
391.368 40.815 L
392 40.815 L
392 40.815 L
392.657 40.815 L
392.667 40.815 L
392.667 40.815 L
393.146 39.501 L
393.332 47.944 L
393.333 47.936 L
393.333 47.939 L
393.341 49.335 L
393.38 41.73 L
394 47.311 L
394 47.311 L
394.153 44.701 L
394.311 48.123 L
394.667 44.992 L
394.667 44.992 L
394.681 42.84 L
395.219 51.605 L
395.333 51.602 L
395.333 51.602 L
395.984 51.601 L
396 51.601 L
396 51.601 L
396.033 51.601 L
396.563 51.601 L
396.667 51.601 L
396.667 51.601 L
396.967 51.601 L
397.333 51.601 L
397.333 51.601 L
397.637 51.601 L
397.896 51.601 L
398 51.601 L
398 51.601 L
398.16 51.601 L
398.667 51.601 L
398.667 51.601 L
399.277 51.601 L
399.333 51.601 L
399.333 51.601 L
399.626 48.143 L
399.814 64.374 L
400 64.048 L
400 64.048 L
400.562 65.8 L
400.598 61.125 L
400.667 61.218 L
400.667 61.218 L
400.686 61.409 L
400.826 53.188 L
401.333 54.746 L
401.333 54.747 L
401.863 55.018 L
401.873 50.722 L
402 50.723 L
402 50.723 L
402.637 50.715 L
402.639 52.157 L
402.667 52.153 L
402.667 52.153 L
402.675 52.154 L
403.302 52.149 L
403.333 52.149 L
403.333 52.149 L
403.649 44.328 L
403.816 58.952 L
404 53.889 L
404 53.889 L
404.188 51.551 L
404.445 62.444 L
404.667 55.466 L
404.667 55.466 L
404.67 55.467 L
404.711 55.464 L
405.333 55.465 L
405.333 55.465 L
405.764 56.469 L
405.869 54.128 L
406 54.532 L
406 54.532 L
406.042 57.831 L
406.084 50.106 L
406.667 50.26 L
406.667 50.26 L
406.783 50.695 L
406.81 48.436 L
407.333 48.785 L
407.333 48.785 L
407.949 48.816 L
407.952 48.009 L
408 48.404 L
408 48.404 L
408.01 47.488 L
408.19 52.806 L
408.667 50.7 L
408.667 50.699 L
408.704 50.405 L
408.799 52.596 L
409.333 50.921 L
409.333 50.921 L
409.719 50.921 L
410 50.921 L
410 50.921 L
410.281 50.921 L
410.667 50.921 L
410.667 50.921 L
411.286 50.921 L
411.333 50.921 L
411.333 50.921 L
411.615 50.921 L
412 50.921 L
412 50.921 L
412.378 50.921 L
412.667 50.921 L
412.667 50.921 L
413.192 50.921 L
413.333 50.921 L
413.333 50.921 L
413.44 50.921 L
414 50.921 L
414 50.921 L
414.173 50.92 L
414.667 50.921 L
414.667 50.921 L
415.15 50.921 L
415.333 50.921 L
415.333 50.921 L
415.683 50.818 L
415.741 51.681 L
416 51.233 L
416 51.233 L
416.203 50.708 L
416.305 53.114 L
416.667 53.1 L
416.667 53.1 L
417.178 51.505 L
417.282 55.108 L
417.333 53.384 L
417.333 53.384 L
417.351 53.382 L
417.575 57.661 L
418 55.395 L
418 55.395 L
418.339 56.27 L
418.476 49.568 L
418.667 51.725 L
418.667 51.725 L
418.807 51.723 L
418.979 57.664 L
419.333 55.468 L
419.333 55.468 L
419.334 55.481 L
419.927 52.564 L
420 52.567 L
420 52.567 L
420.325 50.933 L
420.637 59.855 L
420.667 56.95 L
420.667 56.95 L
420.699 50.282 L
420.938 59.34 L
421.333 52.507 L
421.333 52.507 L
421.687 52.827 L
421.999 51.728 L
422 52.013 L
422 52.009 L
422.001 52.215 L
422.412 47.063 L
422.667 47.096 L
422.667 47.096 L
423.216 45.446 L
423.225 50.307 L
423.333 47.428 L
423.333 47.428 L
423.53 47.207 L
423.966 51.573 L
424 50.285 L
424 50.285 L
424.519 54.912 L
424.519 49.63 L
424.667 52.741 L
424.667 52.741 L
424.99 52.799 L
425.309 51.173 L
425.333 51.35 L
425.333 51.35 L
425.615 50.218 L
425.936 53.007 L
426 53.005 L
426 53.005 L
426.109 54.39 L
426.176 52.981 L
426.667 53.497 L
426.667 53.497 L
426.855 51.101 L
427.12 55.359 L
427.333 54.095 L
427.333 54.095 L
427.62 54.095 L
428 54.095 L
428 54.095 L
428.609 53.56 L
428.615 54.484 L
428.667 54.045 L
428.667 54.045 L
428.788 54.204 L
429.112 49.77 L
429.333 49.815 L
429.333 49.815 L
430 49.815 L
430 49.815 L
430.667 49.815 L
430.667 49.815 L
430.835 49.815 L
431.333 49.815 L
431.333 49.815 L
431.365 49.815 L
432 49.815 L
432 49.815 L
432.11 49.815 L
432.667 49.815 L
432.667 49.815 L
432.813 49.815 L
433.333 49.815 L
433.333 49.815 L
433.653 49.815 L
434 49.815 L
434 49.815 L
434.022 49.815 L
434.667 49.815 L
434.667 49.815 L
435.138 49.815 L
435.333 49.815 L
435.333 49.815 L
435.644 49.815 L
436 49.815 L
436 49.815 L
436.621 49.815 L
436.667 49.815 L
436.667 49.815 L
437.333 49.815 L
437.333 49.815 L
437.856 49.805 L
437.973 49.821 L
438 49.812 L
438 49.812 L
438.006 49.812 L
438.357 52.269 L
438.667 50.457 L
438.667 50.457 L
439.086 50.457 L
439.333 50.457 L
439.333 50.457 L
439.658 50.457 L
439.987 50.457 L
440 50.457 L
440 50.457 L
440.498 50.456 L
440.667 50.456 L
440.667 50.456 L
441.279 50.456 L
441.333 50.456 L
441.333 50.456 L
441.448 50.456 L
442 50.456 L
442 50.456 L
442.576 50.456 L
442.667 50.456 L
442.667 50.456 L
443.333 50.456 L
443.333 50.456 L
443.596 50.456 L
444 50.456 L
444 50.456 L
444.667 50.456 L
444.667 50.456 L
445.333 50.456 L
445.333 50.456 L
445.841 50.456 L
446 50.456 L
446 50.456 L
446.156 50.456 L
446.667 50.456 L
446.667 50.456 L
446.864 50.456 L
447.333 50.456 L
447.333 50.456 L
447.415 50.456 L
448 50.456 L
448 50.456 L
448.606 50.456 L
448.667 50.456 L
448.667 50.456 L
448.983 50.456 L
449.333 50.456 L
449.333 50.456 L
450 50.456 L
450 50.456 L
450.667 50.456 L
450.667 50.456 L
450.748 50.456 L
451.333 50.456 L
451.333 50.456 L
451.716 50.456 L
452 50.456 L
452 50.456 L
452.229 50.456 L
452.667 50.456 L
452.667 50.456 L
453.333 50.456 L
453.333 50.456 L
453.397 50.456 L
454 50.456 L
454 50.456 L
454.051 50.456 L
454.667 50.456 L
454.667 50.456 L
455.276 50.456 L
455.333 50.456 L
455.333 50.456 L
456 50.456 L
456 50.456 L
456.605 50.456 L
456.667 50.456 L
456.667 50.456 L
457.323 50.456 L
457.333 50.456 L
457.333 50.456 L
457.925 50.456 L
458 50.456 L
458 50.456 L
458.142 50.456 L
458.667 50.456 L
458.667 50.456 L
458.889 50.456 L
459.333 50.456 L
459.333 50.456 L
459.519 50.456 L
460 50.456 L
460 50.456 L
460.288 50.456 L
460.667 50.456 L
460.667 50.456 L
461.333 50.456 L
461.333 50.456 L
461.438 50.456 L
462 50.456 L
462 50.456 L
462.052 50.456 L
462.667 50.456 L
462.667 50.456 L
463.333 50.456 L
463.333 50.456 L
463.613 50.456 L
464 50.456 L
464 50.456 L
464.236 50.456 L
464.667 50.456 L
464.667 50.456 L
465.068 50.456 L
465.333 50.456 L
465.333 50.456 L
466 50.456 L
466 50.456 L
466.667 50.456 L
466.667 50.456 L
467.333 50.456 L
467.333 50.456 L
467.588 50.456 L
468 50.456 L
468 50.456 L
468.667 50.456 L
468.667 50.456 L
468.693 50.456 L
469.333 50.456 L
469.333 50.456 L
469.547 50.456 L
470 50.456 L
470 50.456 L
470.029 50.456 L
470.667 50.456 L
470.667 50.456 L
471.106 50.456 L
471.333 50.456 L
471.333 50.456 L
471.867 50.456 L
472 50.456 L
472 50.456 L
472.097 50.456 L
472.667 50.456 L
472.667 50.456 L
472.729 50.456 L
473.333 50.456 L
473.333 50.456 L
473.558 50.456 L
474 50.456 L
474 50.456 L
474.609 50.456 L
474.667 50.456 L
474.667 50.456 L
474.77 50.456 L
475.333 50.456 L
475.333 50.456 L
475.64 50.456 L
476 50.456 L
476 50.456 L
476.658 50.456 L
476.667 50.456 L
476.667 50.456 L
477.333 50.456 L
477.333 50.456 L
477.714 50.456 L
478 50.456 L
478 50.456 L
478.222 50.456 L
478.667 50.456 L
478.667 50.456 L
478.707 50.456 L
479.333 50.456 L
479.333 50.456 L
479.385 50.456 L
480 50.456 L
480 50.456 L
480.114 50.456 L
480.667 50.456 L
480.667 50.456 L
480.864 50.456 L
481.333 50.456 L
481.333 50.456 L
481.442 50.456 L
482 50.456 L
482 50.456 L
482.107 50.456 L
482.667 50.456 L
482.667 50.456 L
483.333 50.456 L
483.333 50.456 L
483.455 50.456 L
484 50.456 L
484 50.456 L
484.667 50.456 L
484.667 50.456 L
485.303 50.456 L
485.333 50.456 L
485.333 50.456 L
486 50.456 L
486 50.456 L
486.435 50.456 L
486.667 50.456 L
486.667 50.456 L
486.974 50.456 L
487.333 50.456 L
487.333 50.456 L
488 50.456 L
488 50.456 L
488.667 50.456 L
488.667 50.456 L
489.333 50.456 L
489.333 50.456 L
489.786 50.456 L
490 50.456 L
490 50.456 L
490.011 50.456 L
490.667 50.456 L
490.667 50.456 L
490.852 50.456 L
491.333 50.456 L
491.333 50.456 L
491.398 50.456 L
492 50.456 L
492 50.456 L
492.214 50.456 L
492.667 50.456 L
492.667 50.456 L
493.333 50.456 L
493.333 50.456 L
493.701 50.456 L
494 50.456 L
494 50.456 L
494.667 50.456 L
494.667 50.456 L
495.047 50.456 L
495.333 50.456 L
495.333 50.456 L
495.65 50.456 L
496 50.456 L
496 50.456 L
496.667 50.456 L
496.667 50.456 L
497.333 50.456 L
497.333 50.456 L
497.495 50.455 L
498 50.455 L
498 50.455 L
498.369 50.455 L
498.667 50.455 L
498.667 50.455 L
498.976 50.455 L
499.333 50.455 L
499.333 50.455 L
500 50.455 L
500 50.455 L
500.259 50.455 L
500.667 50.455 L
500.667 50.455 L
501.163 50.455 L
501.333 50.455 L
501.333 50.455 L
501.969 50.455 L
502 50.455 L
502 50.455 L
502.23 50.455 L
502.667 50.455 L
502.667 50.455 L
502.848 50.455 L
503.333 50.455 L
503.333 50.455 L
504 50.455 L
504 50.455 L
504.667 50.455 L
504.667 50.455 L
504.695 50.455 L
505.333 50.455 L
505.333 50.455 L
505.697 50.455 L
506 50.455 L
506 50.455 L
506.667 50.455 L
506.667 50.455 L
507 50.455 L
S
GR
GS
[0.75 0 0 0.75 0 0] CT
0.929 0.694 0.125 RC
1 LJ
2.667 LW
N
119 366.896 M
119.333 366.896 L
119.333 366.896 L
120 366.896 L
120 366.896 L
120 366.896 L
120.667 366.896 L
120.667 366.896 L
121.333 366.896 L
121.333 366.896 L
122 366.895 L
122 366.895 L
122 366.895 L
122.667 366.895 L
122.667 366.895 L
122.667 366.895 L
123.333 366.895 L
123.333 366.895 L
124 366.895 L
124 366.895 L
124.667 366.895 L
124.667 366.895 L
125.333 366.895 L
125.333 366.895 L
126 366.894 L
126 366.894 L
126.667 366.894 L
126.667 366.894 L
127.333 366.894 L
127.333 366.894 L
128 366.893 L
128 366.893 L
128.667 366.893 L
128.667 366.893 L
129.333 366.893 L
129.333 366.893 L
130 366.892 L
130 366.892 L
130.667 366.892 L
130.667 366.892 L
131.333 366.891 L
131.333 366.891 L
132 366.891 L
132 366.891 L
132.667 366.89 L
132.667 366.89 L
133.333 366.89 L
133.333 366.89 L
134 366.889 L
134 366.889 L
134.667 366.889 L
134.667 366.889 L
135.333 366.888 L
135.333 366.888 L
136 366.888 L
136 366.888 L
136.667 366.887 L
136.667 366.887 L
137.333 366.886 L
137.333 366.886 L
138 366.886 L
138 366.886 L
138.667 366.885 L
138.667 366.885 L
139.333 366.884 L
139.333 366.884 L
140 366.883 L
140 366.883 L
140.667 366.883 L
140.667 366.883 L
141.333 366.882 L
141.333 366.882 L
142 366.881 L
142 366.881 L
142.667 366.88 L
142.667 366.88 L
143.333 366.88 L
143.333 366.88 L
144 366.879 L
144 366.879 L
144.667 366.878 L
144.667 366.878 L
145.333 366.877 L
145.333 366.877 L
146 366.876 L
146 366.876 L
146.667 366.875 L
146.667 366.875 L
147.333 366.874 L
147.333 366.874 L
148 366.873 L
148 366.873 L
148.667 366.872 L
148.667 366.872 L
149.333 366.871 L
149.333 366.871 L
150 366.87 L
150 366.87 L
150.667 366.869 L
150.667 366.869 L
151.333 366.868 L
151.333 366.868 L
152 366.867 L
152 366.867 L
152.667 366.866 L
152.667 366.866 L
153.333 366.865 L
153.333 366.865 L
154 366.864 L
154 366.864 L
154.667 366.863 L
154.667 366.863 L
155.333 366.862 L
155.333 366.862 L
156 366.861 L
156 366.861 L
156.667 366.859 L
156.667 366.859 L
157.333 366.858 L
157.333 366.858 L
158 366.857 L
158 366.857 L
158.667 366.856 L
158.667 366.856 L
159.333 366.855 L
159.333 366.855 L
160 366.853 L
160 366.853 L
160.667 366.852 L
160.667 366.852 L
161.333 366.851 L
161.333 366.851 L
162 366.85 L
162 366.85 L
162.667 366.848 L
162.667 366.848 L
163.333 366.847 L
163.333 366.847 L
164 366.846 L
164 366.846 L
164.667 366.844 L
164.667 366.844 L
165.333 366.843 L
165.333 366.843 L
166 366.842 L
166 366.842 L
166.667 366.84 L
166.667 366.84 L
167.333 366.839 L
167.333 366.839 L
168 366.837 L
168 366.837 L
168.667 366.836 L
168.667 366.836 L
169.333 366.835 L
169.333 366.835 L
170 366.833 L
170 366.833 L
170.667 366.832 L
170.667 366.832 L
171.333 366.83 L
171.333 366.83 L
172 366.829 L
172 366.829 L
172.667 366.827 L
172.667 366.827 L
173.333 366.826 L
173.333 366.826 L
174 366.824 L
174 366.824 L
174.667 366.823 L
174.667 366.823 L
175.333 366.821 L
175.333 366.821 L
176 366.82 L
176 366.82 L
176.667 366.818 L
176.667 366.818 L
177.333 366.817 L
177.333 366.817 L
178 366.815 L
178 366.815 L
178.667 366.814 L
178.667 366.814 L
179.333 366.812 L
179.333 366.812 L
180 366.81 L
180 366.81 L
180.667 366.809 L
180.667 366.809 L
181.333 366.807 L
181.333 366.807 L
182 366.806 L
182 366.806 L
182.667 366.804 L
182.667 366.804 L
183.333 366.802 L
183.333 366.802 L
184 366.801 L
184 366.801 L
184.667 366.799 L
184.667 366.799 L
185.333 366.797 L
185.333 366.797 L
186 366.795 L
186 366.795 L
186.667 366.794 L
186.667 366.794 L
187.333 366.792 L
187.333 366.792 L
188 366.79 L
188 366.79 L
188.667 366.789 L
188.667 366.789 L
189.333 366.787 L
189.333 366.787 L
190 366.785 L
190 366.785 L
190.667 366.783 L
190.667 366.783 L
191.333 366.781 L
191.333 366.781 L
192 366.78 L
192 366.78 L
192.667 366.778 L
192.667 366.778 L
193.333 366.776 L
193.333 366.776 L
194 366.775 L
194 366.775 L
194.667 366.773 L
194.667 366.773 L
195.333 366.772 L
195.333 366.772 L
196 366.77 L
196 366.77 L
196.667 366.768 L
196.667 366.768 L
197.333 366.767 L
197.333 366.767 L
198 366.765 L
198 366.765 L
198.667 366.764 L
198.667 366.764 L
199.333 366.762 L
199.333 366.762 L
200 366.761 L
200 366.761 L
200.667 366.759 L
200.667 366.759 L
201.333 366.757 L
201.333 366.757 L
202 366.756 L
202 366.756 L
202.667 366.754 L
202.667 366.754 L
203.333 366.753 L
203.333 366.753 L
204 366.751 L
204 366.751 L
204.667 366.75 L
204.667 366.75 L
205.333 366.748 L
205.333 366.748 L
206 366.746 L
206 366.746 L
206.667 366.744 L
206.667 366.744 L
207.333 366.743 L
207.333 366.743 L
208 366.741 L
208 366.741 L
208.667 366.739 L
208.667 366.739 L
209.333 366.737 L
209.333 366.737 L
210 366.736 L
210 366.736 L
210.667 366.734 L
210.667 366.734 L
211.333 366.732 L
211.333 366.732 L
212 366.731 L
212 366.731 L
212.667 366.729 L
212.667 366.729 L
213.333 366.727 L
213.333 366.727 L
214 366.725 L
214 366.725 L
214.667 366.723 L
214.667 366.723 L
215.333 366.721 L
215.333 366.721 L
216 366.72 L
216 366.72 L
216.667 366.718 L
216.667 366.718 L
217.333 366.716 L
217.333 366.716 L
218 366.714 L
218 366.714 L
218.667 366.712 L
218.667 366.712 L
219.333 366.711 L
219.333 366.711 L
220 366.709 L
220 366.709 L
220.667 366.707 L
220.667 366.707 L
221.333 366.706 L
221.333 366.706 L
222 366.704 L
222 366.704 L
222.667 366.702 L
222.667 366.702 L
223.333 366.7 L
223.333 366.7 L
224 366.698 L
224 366.698 L
224.667 366.696 L
224.667 366.696 L
225.333 366.694 L
225.333 366.694 L
226 366.692 L
226 366.692 L
226.667 366.69 L
226.667 366.69 L
227.333 366.688 L
227.333 366.688 L
228 366.686 L
228 366.686 L
228.667 366.684 L
228.667 366.684 L
229.333 366.682 L
229.333 366.682 L
230 366.681 L
230 366.681 L
230.667 366.679 L
230.667 366.679 L
231.333 366.677 L
231.333 366.677 L
232 366.675 L
232 366.675 L
232.667 366.673 L
232.667 366.673 L
233.333 366.671 L
233.333 366.671 L
234 366.67 L
234 366.67 L
234.667 366.668 L
234.667 366.668 L
235.333 366.666 L
235.333 366.666 L
236 366.664 L
236 366.664 L
236.667 366.661 L
236.667 366.661 L
237.333 366.659 L
237.333 366.659 L
238 366.657 L
238 366.657 L
238.667 366.655 L
238.667 366.655 L
239.333 366.652 L
239.333 366.652 L
240 366.65 L
240 366.65 L
240.667 366.647 L
240.667 366.647 L
241.333 366.645 L
241.333 366.645 L
242 366.643 L
242 366.643 L
242.667 366.641 L
242.667 366.641 L
243.333 366.639 L
243.333 366.639 L
244 366.637 L
244 366.637 L
244.667 366.635 L
244.667 366.635 L
245.333 366.633 L
245.333 366.633 L
246 366.631 L
246 366.631 L
246.667 366.63 L
246.667 366.63 L
247.333 366.628 L
247.333 366.628 L
248 366.626 L
248 366.626 L
248.667 366.624 L
248.667 366.624 L
249.333 366.622 L
249.333 366.622 L
250 366.62 L
250 366.62 L
250.667 366.618 L
250.667 366.618 L
251.333 366.616 L
251.333 366.616 L
252 366.614 L
252 366.614 L
252.667 366.612 L
252.667 366.612 L
253.333 366.61 L
253.333 366.61 L
254 366.607 L
254 366.607 L
254.667 366.605 L
254.667 366.605 L
255.333 366.603 L
255.333 366.603 L
256 366.601 L
256 366.601 L
256.667 366.599 L
256.667 366.599 L
257.333 366.597 L
257.333 366.597 L
258 366.595 L
258 366.595 L
258.667 366.593 L
258.667 366.593 L
259.333 366.591 L
259.333 366.591 L
260 366.589 L
260 366.589 L
260.667 366.586 L
260.667 366.586 L
261.333 366.584 L
261.333 366.584 L
262 366.582 L
262 366.582 L
262.667 366.58 L
262.667 366.58 L
263.333 366.578 L
263.333 366.578 L
264 366.575 L
264 366.575 L
264.667 366.573 L
264.667 366.573 L
265.333 366.571 L
265.333 366.571 L
266 366.568 L
266 366.568 L
266.667 366.566 L
266.667 366.566 L
267.333 366.563 L
267.333 366.563 L
268 366.56 L
268 366.56 L
268.667 366.557 L
268.667 366.557 L
269.333 366.553 L
269.333 366.553 L
270 366.55 L
270 366.55 L
270.667 366.546 L
270.667 366.546 L
271.333 366.542 L
271.333 366.542 L
272 366.538 L
272 366.538 L
272.667 366.535 L
272.667 366.535 L
273.333 366.532 L
273.333 366.532 L
274 366.528 L
274 366.528 L
274.667 366.525 L
274.667 366.525 L
275.333 366.521 L
275.333 366.521 L
276 366.518 L
276 366.518 L
276.667 366.515 L
276.667 366.515 L
277.333 366.512 L
277.333 366.512 L
278 366.509 L
278 366.509 L
278.667 366.506 L
278.667 366.506 L
279.333 366.503 L
279.333 366.503 L
280 366.501 L
280 366.501 L
280.667 366.498 L
280.667 366.498 L
281.333 366.496 L
281.333 366.496 L
282 366.493 L
282 366.493 L
282.667 366.491 L
282.667 366.491 L
283.333 366.488 L
283.333 366.488 L
284 366.486 L
284 366.486 L
284.667 366.483 L
284.667 366.483 L
285.333 366.48 L
285.333 366.48 L
286 366.477 L
286 366.477 L
286.667 366.474 L
286.667 366.474 L
287.333 366.471 L
287.333 366.471 L
288 366.469 L
288 366.469 L
288.667 366.466 L
288.667 366.466 L
289.333 366.464 L
289.333 366.464 L
290 366.462 L
290 366.462 L
290.667 366.46 L
290.667 366.46 L
291.333 366.457 L
291.333 366.457 L
292 366.455 L
292 366.455 L
292.667 366.453 L
292.667 366.453 L
293.333 366.451 L
293.333 366.451 L
294 366.449 L
294 366.449 L
294.667 366.446 L
294.667 366.446 L
295.333 366.444 L
295.333 366.444 L
296 366.442 L
296 366.442 L
296.667 366.44 L
296.667 366.44 L
297.333 366.437 L
297.333 366.437 L
298 366.435 L
298 366.435 L
298.667 366.433 L
298.667 366.433 L
299.333 366.431 L
299.333 366.431 L
300 366.43 L
300 366.43 L
300.667 366.428 L
300.667 366.428 L
301.333 366.426 L
301.333 366.426 L
302 366.425 L
302 366.425 L
302.667 366.424 L
302.667 366.424 L
303.333 366.423 L
303.333 366.423 L
304 366.421 L
304 366.421 L
304.667 366.42 L
304.667 366.42 L
305.333 366.419 L
305.333 366.419 L
306 366.418 L
306 366.418 L
306.667 366.416 L
306.667 366.416 L
307.333 366.415 L
307.333 366.415 L
308 366.414 L
308 366.414 L
308.667 366.412 L
308.667 366.412 L
309.333 366.41 L
309.333 366.41 L
310 366.409 L
310 366.409 L
310.667 366.407 L
310.667 366.407 L
311.333 366.406 L
311.333 366.406 L
312 366.404 L
312 366.404 L
312.667 366.402 L
312.667 366.402 L
313.333 366.401 L
313.333 366.401 L
314 366.399 L
314 366.399 L
314.667 366.397 L
314.667 366.397 L
315.333 366.395 L
315.333 366.395 L
316 366.393 L
316 366.393 L
316.667 366.392 L
316.667 366.392 L
317.333 366.39 L
317.333 366.39 L
318 366.388 L
318 366.388 L
318.667 366.387 L
318.667 366.387 L
319.333 366.385 L
319.333 366.385 L
320 366.384 L
320 366.384 L
320.667 366.382 L
320.667 366.382 L
321.333 366.381 L
321.333 366.381 L
322 366.379 L
322 366.379 L
322.667 366.377 L
322.667 366.377 L
323.333 366.376 L
323.333 366.376 L
324 366.374 L
324 366.374 L
324.667 366.373 L
324.667 366.373 L
325.333 366.371 L
325.333 366.371 L
326 366.37 L
326 366.37 L
326.667 366.368 L
326.667 366.368 L
327.333 366.367 L
327.333 366.367 L
328 366.365 L
328 366.365 L
328.667 366.364 L
328.667 366.364 L
329.333 366.362 L
329.333 366.362 L
330 366.361 L
330 366.361 L
330.667 366.359 L
330.667 366.359 L
331.333 366.358 L
331.333 366.358 L
332 366.356 L
332 366.356 L
332.667 366.354 L
332.667 366.354 L
333.333 366.353 L
333.333 366.353 L
334 366.351 L
334 366.351 L
334.667 366.349 L
334.667 366.349 L
335.333 366.347 L
335.333 366.347 L
336 366.344 L
336 366.344 L
336.667 366.342 L
336.667 366.342 L
337.333 366.34 L
337.333 366.34 L
338 366.338 L
338 366.338 L
338.667 366.335 L
338.667 366.335 L
339.333 366.333 L
339.333 366.333 L
340 366.331 L
340 366.331 L
340.667 366.328 L
340.667 366.328 L
341.333 366.326 L
341.333 366.326 L
342 366.324 L
342 366.324 L
342.667 366.322 L
342.667 366.322 L
343.333 366.32 L
343.333 366.32 L
344 366.318 L
344 366.318 L
344.667 366.315 L
344.667 366.315 L
345.333 366.313 L
345.333 366.313 L
346 366.31 L
346 366.31 L
346.667 366.307 L
346.667 366.307 L
347.333 366.304 L
347.333 366.304 L
348 366.3 L
348 366.3 L
348.667 366.296 L
348.667 366.296 L
349.333 366.291 L
349.333 366.291 L
350 366.284 L
350 366.284 L
350.667 366.278 L
350.667 366.278 L
351.333 366.272 L
351.333 366.272 L
352 366.266 L
352 366.266 L
352.667 366.261 L
352.667 366.261 L
353.333 366.255 L
353.333 366.255 L
354 366.25 L
354 366.25 L
354.667 366.244 L
354.667 366.244 L
355.333 366.238 L
355.333 366.238 L
356 366.232 L
356 366.232 L
356.667 366.226 L
356.667 366.226 L
357.333 366.221 L
357.333 366.221 L
358 366.216 L
358 366.216 L
358.667 366.211 L
358.667 366.211 L
359.333 366.207 L
359.333 366.207 L
360 366.203 L
360 366.203 L
360.667 366.199 L
360.667 366.199 L
361.333 366.196 L
361.333 366.196 L
362 366.193 L
362 366.193 L
362.667 366.19 L
362.667 366.19 L
363.333 366.187 L
363.333 366.187 L
364 366.184 L
364 366.184 L
364.667 366.18 L
364.667 366.18 L
365.333 366.176 L
365.333 366.176 L
366 366.172 L
366 366.172 L
366.667 366.167 L
366.667 366.167 L
367.333 366.162 L
367.333 366.162 L
368 366.158 L
368 366.158 L
368.667 366.155 L
368.667 366.155 L
369.333 366.151 L
369.333 366.151 L
370 366.148 L
370 366.148 L
370.667 366.144 L
370.667 366.144 L
371.333 366.14 L
371.333 366.14 L
372 366.137 L
372 366.137 L
372.667 366.133 L
372.667 366.133 L
373.333 366.129 L
373.333 366.129 L
374 366.125 L
374 366.125 L
374.667 366.12 L
374.667 366.12 L
375.333 366.115 L
375.333 366.115 L
376 366.11 L
376 366.11 L
376.667 366.103 L
376.667 366.103 L
377.333 366.097 L
377.333 366.097 L
378 366.092 L
378 366.092 L
378.667 366.085 L
378.667 366.085 L
379.333 366.078 L
379.333 366.078 L
380 366.073 L
380 366.073 L
380.667 366.07 L
380.667 366.07 L
381.333 366.068 L
381.333 366.068 L
382 366.065 L
382 366.065 L
382.667 366.062 L
382.667 366.062 L
383.333 366.06 L
383.333 366.06 L
384 366.058 L
384 366.058 L
384.667 366.056 L
384.667 366.056 L
385.333 366.054 L
385.333 366.054 L
386 366.052 L
386 366.052 L
386.667 366.051 L
386.667 366.051 L
387.333 366.049 L
387.333 366.049 L
388 366.047 L
388 366.047 L
388.667 366.044 L
388.667 366.044 L
389.333 366.041 L
389.333 366.041 L
390 366.038 L
390 366.038 L
390.667 366.035 L
390.667 366.035 L
391.333 366.031 L
391.333 366.031 L
392 366.028 L
392 366.028 L
392.667 366.024 L
392.667 366.024 L
393.333 366.019 L
393.333 366.019 L
394 366.014 L
394 366.014 L
394.667 366.008 L
394.667 366.008 L
395.333 366.003 L
395.333 366.003 L
396 365.996 L
396 365.996 L
396.667 365.99 L
396.667 365.99 L
397.333 365.982 L
397.333 365.982 L
398 365.973 L
398 365.973 L
398.667 365.964 L
398.667 365.964 L
399.333 365.956 L
399.333 365.956 L
400 365.945 L
400 365.945 L
400.667 365.931 L
400.667 365.931 L
401.333 365.905 L
401.333 365.905 L
402 365.874 L
402 365.874 L
402.667 365.856 L
402.667 365.856 L
403.333 365.842 L
403.333 365.842 L
404 365.826 L
404 365.826 L
404.667 365.815 L
404.667 365.815 L
405.333 365.807 L
405.333 365.807 L
406 365.8 L
406 365.8 L
406.667 365.794 L
406.667 365.794 L
407.333 365.79 L
407.333 365.79 L
408 365.785 L
408 365.785 L
408.667 365.779 L
408.667 365.779 L
409.333 365.773 L
409.333 365.773 L
410 365.767 L
410 365.767 L
410.667 365.763 L
410.667 365.763 L
411.333 365.76 L
411.333 365.76 L
412 365.756 L
412 365.756 L
412.667 365.752 L
412.667 365.752 L
413.333 365.749 L
413.333 365.749 L
414 365.744 L
414 365.744 L
414.667 365.739 L
414.667 365.739 L
415.333 365.734 L
415.333 365.734 L
416 365.732 L
416 365.732 L
416.667 365.73 L
416.667 365.73 L
417.333 365.727 L
417.333 365.727 L
418 365.725 L
418 365.725 L
418.667 365.723 L
418.667 365.723 L
419.333 365.721 L
419.333 365.721 L
420 365.719 L
420 365.719 L
420.667 365.717 L
420.667 365.717 L
421.333 365.716 L
421.333 365.716 L
422 365.714 L
422 365.714 L
422 365.714 L
422.667 365.713 L
422.667 365.713 L
422.667 365.713 L
423.333 365.712 L
423.333 365.712 L
424 365.711 L
424 365.711 L
424.667 365.708 L
424.667 365.708 L
425.333 365.706 L
425.333 365.706 L
426 365.704 L
426 365.704 L
426.667 365.703 L
426.667 365.703 L
427.333 365.702 L
427.333 365.702 L
428 365.7 L
428 365.7 L
428.667 365.697 L
428.667 365.697 L
429.333 365.694 L
429.333 365.694 L
430 365.692 L
430 365.692 L
430.667 365.689 L
430.667 365.689 L
431.333 365.685 L
431.333 365.685 L
432 365.678 L
432 365.678 L
432.667 365.672 L
432.667 365.672 L
433.333 365.667 L
433.333 365.667 L
434 365.662 L
434 365.662 L
434.667 365.655 L
434.667 365.655 L
435.333 365.649 L
435.333 365.649 L
436 365.643 L
436 365.643 L
436.667 365.639 L
436.667 365.639 L
437.333 365.635 L
437.333 365.635 L
438 365.632 L
438 365.632 L
438.667 365.629 L
438.667 365.629 L
439.333 365.627 L
439.333 365.627 L
439.333 365.627 L
439.999 365.626 L
440 365.626 L
440 365.626 L
440.151 365.626 L
440.571 365.627 L
440.667 365.627 L
440.667 365.627 L
441.333 365.626 L
441.333 365.626 L
442 365.625 L
442 365.625 L
442 365.625 L
442.464 365.625 L
442.667 365.625 L
442.667 365.625 L
442.73 365.625 L
443.333 365.625 L
443.333 365.625 L
443.333 365.625 L
443.646 365.625 L
444 365.625 L
444 365.625 L
444.667 365.624 L
444.667 365.624 L
444.667 365.624 L
445.333 365.623 L
445.333 365.623 L
446 365.622 L
446 365.622 L
446.667 365.62 L
446.667 365.62 L
447.333 365.618 L
447.333 365.618 L
448 365.615 L
448 365.615 L
448.667 365.612 L
448.667 365.612 L
449.333 365.609 L
449.333 365.609 L
450 365.604 L
450 365.604 L
450.667 365.601 L
450.667 365.601 L
451.333 365.598 L
451.333 365.598 L
452 365.596 L
452 365.596 L
452.667 365.593 L
452.667 365.593 L
453.333 365.591 L
453.333 365.591 L
454 365.589 L
454 365.589 L
454.667 365.585 L
454.667 365.585 L
455.333 365.583 L
455.333 365.583 L
456 365.58 L
456 365.58 L
456.667 365.578 L
456.667 365.578 L
457.333 365.576 L
457.333 365.576 L
458 365.574 L
458 365.574 L
458.667 365.572 L
458.667 365.572 L
458.667 365.572 L
459.333 365.57 L
459.333 365.57 L
460 365.569 L
460 365.569 L
460 365.569 L
460.667 365.568 L
460.667 365.568 L
460.667 365.568 L
461.333 365.568 L
461.333 365.568 L
461.333 365.568 L
462 365.567 L
462 365.567 L
462.667 365.565 L
462.667 365.565 L
463.333 365.563 L
463.333 365.563 L
464 365.56 L
464 365.56 L
464.667 365.558 L
464.667 365.558 L
465.333 365.555 L
465.333 365.555 L
466 365.552 L
466 365.552 L
466.667 365.547 L
466.667 365.547 L
467.333 365.542 L
467.333 365.542 L
468 365.537 L
468 365.537 L
468.667 365.534 L
468.667 365.534 L
469.333 365.531 L
469.333 365.531 L
470 365.528 L
470 365.528 L
470.667 365.524 L
470.667 365.524 L
471.333 365.522 L
471.333 365.522 L
472 365.522 L
472 365.522 L
472 365.522 L
472.667 365.521 L
472.667 365.521 L
472.667 365.521 L
473.08 365.521 L
473.333 365.521 L
473.333 365.521 L
474 365.522 L
474 365.522 L
474 365.522 L
474.667 365.522 L
474.667 365.522 L
475.333 365.523 L
475.333 365.523 L
475.333 365.523 L
476 365.524 L
476 365.524 L
476.667 365.525 L
476.667 365.525 L
477.333 365.526 L
477.333 365.526 L
478 365.528 L
478 365.528 L
478 365.528 L
478.666 365.528 L
478.667 365.528 L
478.667 365.528 L
479.333 365.529 L
479.333 365.529 L
479.333 365.529 L
480 365.529 L
480 365.529 L
480.103 365.529 L
480.666 365.529 L
480.667 365.529 L
480.667 365.529 L
480.725 365.529 L
481.333 365.529 L
481.333 365.529 L
481.333 365.529 L
482 365.528 L
482 365.528 L
482 365.528 L
482.667 365.528 L
482.667 365.528 L
482.667 365.528 L
483.333 365.527 L
483.333 365.527 L
483.333 365.527 L
484 365.526 L
484 365.526 L
484.667 365.525 L
484.667 365.525 L
485.333 365.524 L
485.333 365.524 L
485.333 365.524 L
486 365.522 L
486 365.522 L
486 365.522 L
486.667 365.521 L
486.667 365.521 L
487.333 365.52 L
487.333 365.52 L
487.333 365.52 L
488 365.519 L
488 365.519 L
488 365.519 L
488.667 365.518 L
488.667 365.518 L
488.667 365.518 L
489.333 365.516 L
489.333 365.516 L
490 365.515 L
490 365.515 L
490.667 365.512 L
490.667 365.512 L
491.333 365.51 L
491.333 365.51 L
492 365.507 L
492 365.507 L
492.667 365.504 L
492.667 365.504 L
493.333 365.5 L
493.333 365.5 L
494 365.496 L
494 365.496 L
494.667 365.491 L
494.667 365.491 L
495.333 365.488 L
495.333 365.488 L
496 365.486 L
496 365.486 L
496 365.486 L
496.667 365.485 L
496.667 365.485 L
497.333 365.484 L
497.333 365.484 L
497.333 365.484 L
497.998 365.483 L
498 365.483 L
498 365.483 L
498.075 365.483 L
498.666 365.483 L
498.667 365.483 L
498.667 365.483 L
499.333 365.483 L
499.333 365.483 L
499.333 365.483 L
499.996 365.484 L
500 365.484 L
500 365.484 L
500.376 365.484 L
500.666 365.484 L
500.667 365.484 L
500.667 365.484 L
501.333 365.483 L
501.333 365.483 L
501.333 365.483 L
501.857 365.483 L
502 365.483 L
502 365.483 L
502.24 365.483 L
502.667 365.483 L
502.667 365.483 L
502.667 365.483 L
503.333 365.483 L
503.333 365.483 L
503.333 365.483 L
504 365.482 L
504 365.482 L
504 365.482 L
504.666 365.482 L
504.667 365.482 L
504.667 365.482 L
505.333 365.481 L
505.333 365.481 L
505.333 365.481 L
506 365.481 L
506 365.481 L
506 365.481 L
506.667 365.48 L
506.667 365.48 L
506.667 365.48 L
507 365.479 L
507 365.479 L
S
GR
%%Trailer
%%Pages: 1
%%EOF
